# Wavefront OBJ
# Created by fragMOTION
# http://www.fragmosoft.com

mtllib cupboard.mtl
# 166 vertices
v 1.65657 21.5255 -11.6867
v 1.34903 21.663 -11.5097
v 1.65657 21.5255 -11.5097
v 1.34903 21.663 -11.6867
v 1.65657 15.665 -11.5097
v 1.34903 15.5275 -11.6867
v 1.65657 15.665 -11.6867
v 1.34903 15.5275 -11.5097
v 1.83497 21.2558 -11.6867
v 1.83497 21.2558 -11.5097
v 1.04148 21.5255 -11.6867
v 0.863079 21.2558 -11.6867
v 0.863079 15.9346 -11.6867
v 1.83497 15.9346 -11.6867
v 1.04148 15.665 -11.6867
v 1.04148 21.5255 -11.5097
v 0.863079 21.2558 -11.5097
v 0.863079 15.9346 -11.5097
v 1.83497 15.9346 -11.5097
v 1.04148 15.665 -11.5097
v -25.8934 46.8212 14.3364
v -25.8934 46.8212 -10.2809
v 25.5443 46.8212 14.3364
v 25.5443 46.8212 -10.2809
v -25.8934 5.0359 -10.2809
v -25.8934 5.0359 14.3364
v 25.5443 5.0359 14.3364
v 25.5443 5.0359 -10.2809
v 25.5443 44.7098 -10.2809
v -25.8934 44.7098 -10.2809
v -0.0857678 44.7098 -10.2809
v -0.0857678 9.13934 -10.2809
v -25.8934 9.13934 -10.2809
v 25.5443 9.13934 -10.2809
v 23.1946 9.13934 -10.2809
v 23.1946 44.7098 -10.2809
v -23.4925 9.13934 -10.2809
v -23.4925 44.7098 -10.2809
v 0.314232 9.58106 -11.559
v 0.314232 44.1696 -11.559
v 22.6545 44.1696 -11.559
v 22.6545 9.58106 -11.559
v -0.485768 44.1696 -11.559
v -0.485768 9.58106 -11.559
v -22.9223 9.58106 -11.559
v -22.9223 44.1696 -11.559
v -27.0904 46.8212 -11.4779
v 26.7413 46.8212 -11.4779
v -28.2625 48.6886 -12.4754
v 28.2625 48.6886 -12.4754
v 28.2625 48.6886 14.3364
v 26.7413 46.8212 14.3364
v -27.0904 46.8212 14.3364
v -28.2625 48.6886 14.3364
v 24.1662 5.04429 5.96056
v 25.529 4.36999 6.20088
v 24.1662 4.36999 6.20088
v 25.529 5.04429 5.96056
v 24.1662 0.484984 13.8599
v 25.529 0 14.3173
v 24.1662 0 14.3173
v 25.529 0.484984 13.8599
v 24.1662 0.725311 13.0061
v 25.529 0.725311 13.0061
v 25.529 5.04429 14.3272
v 25.529 1.47436 12.2617
v 25.529 3.24136 11.5516
v 25.529 3.45842 11.1974
v 25.529 3.72811 7.57065
v 25.529 3.97742 6.721
v 24.1662 1.47436 12.2617
v 24.1662 3.24136 11.5516
v 24.1662 5.04429 14.3272
v 24.1662 3.97742 6.721
v 24.1662 3.72811 7.57065
v 24.1662 3.45842 11.1974
v -1.71604 21.3909 -11.6426
v -1.71604 16.0093 -11.6426
v -1.71604 16.5232 -13.3074
v -1.71604 17.8686 -14.3364
v -1.71604 19.5316 -14.3364
v -1.71604 20.877 -13.3074
v -1.30338 21.3909 -11.6426
v -1.30338 16.0093 -11.6426
v -1.30338 16.5232 -13.3074
v -1.30338 17.8686 -14.3364
v -1.30338 19.5316 -14.3364
v -1.30338 20.877 -13.3074
v -1.68427 21.0949 -11.6426
v -1.68427 20.6375 -13.1243
v -1.68427 19.4401 -14.04
v -1.68427 17.9601 -14.04
v -1.68427 16.7626 -13.1243
v -1.68427 16.3053 -11.6426
v -1.33516 21.0949 -11.6426
v -1.33516 16.3053 -11.6426
v -1.33516 16.7626 -13.1243
v -1.33516 17.9601 -14.04
v -1.33516 19.4401 -14.04
v -1.33516 20.6375 -13.1243
v 1.12897 21.3909 -11.6426
v 1.12897 16.0093 -11.6426
v 1.12897 16.5232 -13.3074
v 1.12897 17.8686 -14.3364
v 1.12897 19.5316 -14.3364
v 1.12897 20.877 -13.3074
v 1.54164 21.3909 -11.6426
v 1.54164 16.0093 -11.6426
v 1.54164 16.5232 -13.3074
v 1.54164 17.8686 -14.3364
v 1.54164 19.5316 -14.3364
v 1.54164 20.877 -13.3074
v 1.16075 21.0949 -11.6426
v 1.16075 20.6375 -13.1243
v 1.16075 19.4401 -14.04
v 1.16075 17.9601 -14.04
v 1.16075 16.7626 -13.1243
v 1.16075 16.3053 -11.6426
v 1.50986 21.0949 -11.6426
v 1.50986 16.3053 -11.6426
v 1.50986 16.7626 -13.1243
v 1.50986 17.9601 -14.04
v 1.50986 19.4401 -14.04
v 1.50986 20.6375 -13.1243
v -25.8866 5.04501 5.96056
v -24.5238 4.37071 6.20088
v -25.8866 4.37071 6.20088
v -24.5238 5.04501 5.96056
v -25.8866 0.485706 13.8599
v -24.5238 0.000721587 14.3173
v -25.8866 0.000721587 14.3173
v -24.5238 0.485706 13.8599
v -25.8866 0.726032 13.0061
v -24.5238 0.726032 13.0061
v -24.5238 5.04501 14.3272
v -24.5238 1.47509 12.2617
v -24.5238 3.24208 11.5516
v -24.5238 3.45914 11.1974
v -24.5238 3.72883 7.57065
v -24.5238 3.97814 6.721
v -25.8866 1.47509 12.2617
v -25.8866 3.24208 11.5516
v -25.8866 5.04501 14.3272
v -25.8866 3.97814 6.721
v -25.8866 3.72883 7.57065
v -25.8866 3.45914 11.1974
v -1.18844 21.5255 -11.6867
v -1.49599 21.663 -11.5097
v -1.18844 21.5255 -11.5097
v -1.49599 21.663 -11.6867
v -1.18844 15.665 -11.5097
v -1.49599 15.5275 -11.6867
v -1.18844 15.665 -11.6867
v -1.49599 15.5275 -11.5097
v -1.01005 21.2558 -11.6867
v -1.01005 21.2558 -11.5097
v -1.80354 21.5255 -11.6867
v -1.98194 21.2558 -11.6867
v -1.98194 15.9346 -11.6867
v -1.01005 15.9346 -11.6867
v -1.80354 15.665 -11.6867
v -1.80354 21.5255 -11.5097
v -1.98194 21.2558 -11.5097
v -1.98194 15.9346 -11.5097
v -1.01005 15.9346 -11.5097
v -1.80354 15.665 -11.5097
# 201 texture vertices
vt 0.953339 0.243709
vt 0.96469 0.248501
vt 0.97619 0.243945
vt 0.964975 0.0180686
vt 0.953475 0.0226251
vt 0.976326 0.022862
vt 0.9467 0.0322904
vt 0.946687 0.234191
vt 0.982965 0.23428
vt 0.982978 0.0323795
vt 0.823162 0.997015
vt 0.823162 0.577823
vt 0.576201 0.618989
vt 0.576201 0.997015
vt 0.576201 0.975833
vt 0.823162 0.975833
vt 0.576201 0.577823
vt 0.823162 0.618989
vt 0.028743 0.403341
vt 0.028743 0.168524
vt 0.0148225 0.399328
vt 0.0285666 0.403313
vt 0.0285666 0.168551
vt 0.015001 0.397649
vt 0.268812 0.533862
vt 0.268812 0.186868
vt 0.0446936 0.186868
vt 0.0446936 0.533862
vt 0.0149989 0.172511
vt 0.0148225 0.174243
vt 0.56947 0.573706
vt 0.838447 0.573706
vt 0.56947 0.00664458
vt 0.838447 0.00664458
vt 0.260418 0.132572
vt 0.391768 0.132572
vt 0.342632 0.107676
vt 0.264191 0.121987
vt 0.272356 0.115823
vt 0.384431 0.0609948
vt 0.371027 0.0647677
vt 0.35934 0.0765273
vt 0.391612 0.0533809
vt 0.348193 0.104268
vt 0.285695 0.111909
vt 0.948725 0.249037
vt 0.964582 0.255285
vt 0.9808 0.249638
vt 0.948865 0.0169325
vt 0.965083 0.0112852
vt 0.94003 0.0319666
vt 0.94003 0.234502
vt 0.989635 0.234604
vt 0.989635 0.0320687
vt 0.98094 0.0175338
vt 0.0294174 0.972289
vt 0.0174088 0.972289
vt 0.00565035 0.991022
vt 0.545442 0.972289
vt 0.545442 0.553097
vt 0.0294174 0.553097
vt 0.0285661 0.402707
vt 0.0285661 0.169157
vt 0.0149995 0.174576
vt 0.0150649 0.10751
vt 0.0150649 0.464354
vt 0.0285006 0.458935
vt 0.0287434 0.402685
vt 0.0287434 0.169179
vt 0.0148221 0.173149
vt 0.0288031 0.464344
vt 0.0288031 0.107521
vt 0.0147624 0.111932
vt 0.0149995 0.398694
vt 0.0148238 0.397311
vt 0.0285006 0.111942
vt 0.014763 0.458946
vt 0.866604 0.0283767
vt 0.845365 0.0131158
vt 0.845365 0.580177
vt 0.866604 0.568419
vt 0.557451 0.972289
vt 0.572712 0.991022
vt 0.244266 0.053959
vt 0.22287 0.053959
vt 0.244266 0.133151
vt 0.22287 0.133151
vt 0.920463 0.0100856
vt 0.920463 0.0937756
vt 0.933716 0.0937756
vt 0.920463 0.177466
vt 0.920463 0.261156
vt 0.933716 0.261156
vt 0.920463 0.344846
vt 0.920463 0.428536
vt 0.933716 0.428536
vt 0.93372 0.428642
vt 0.93372 0.34491
vt 0.93372 0.00997882
vt 0.920459 0.00997882
vt 0.93372 0.177444
vt 0.933716 0.0100856
vt 0.920459 0.428642
vt 0.0157785 0.156447
vt 0.0157785 0.403408
vt 0.0277871 0.156447
vt 0.542999 0.536064
vt 0.542999 0.0200387
vt 0.530991 0.00803006
vt 0.0277871 0.415417
vt 0.0157785 0.415417
vt 0.0277871 0.403408
vt 0.580478 0.548188
vt 0.82744 0.548188
vt 0.82744 0.0321629
vt 0.580478 0.0321629
vt 0.0282586 0.464343
vt 0.0148225 0.10751
vt 0.0148225 0.464354
vt 0.028743 0.111942
vt 0.0152933 0.111914
vt 0.028743 0.458935
vt 0.277977 0.186868
vt 0.277977 0.533862
vt 0.503062 0.186868
vt 0.503062 0.533862
vt 0.530991 0.548072
vt 0.0328419 0.161451
vt 0.0107237 0.151444
vt 0.0328419 0.420421
vt 0.00970128 0.420421
vt 0.0338643 0.410413
vt 0.00970128 0.151444
vt 0.0338643 0.151444
vt 0.0107237 0.420421
vt 0.244266 0.178481
vt 0.244266 0.167243
vt 0.22287 0.178481
vt 0.22287 0.167243
vt 0.22287 0.157013
vt 0.244266 0.157013
vt 0.244266 0.0190945
vt 0.244266 0.00862869
vt 0.22287 0.0190945
vt 0.244266 0.0330197
vt 0.22287 0.00862869
vt 0.22287 0.0330197
vt 0.22287 0.0495987
vt 0.22287 0.0794952
vt 0.244266 0.0794952
vt 0.22287 0.0860175
vt 0.244266 0.0860175
vt 0.22287 0.143111
vt 0.244266 0.143111
vt 0.244266 0.0495987
vt 0.892726 0.424748
vt 0.892726 0.341548
vt 0.872613 0.424748
vt 0.892726 0.00874798
vt 0.872613 0.00874798
vt 0.872613 0.0936692
vt 0.892726 0.091948
vt 0.892726 0.175148
vt 0.872613 0.176221
vt 0.872613 0.257275
vt 0.892726 0.258348
vt 0.872613 0.339827
vt 0.898804 0.305105
vt 0.898804 0.379153
vt 0.915819 0.303573
vt 0.898804 0.231057
vt 0.898804 0.157009
vt 0.915819 0.157965
vt 0.898804 0.0829613
vt 0.898804 0.00891333
vt 0.915819 0.00891333
vt 0.915819 0.379153
vt 0.915819 0.0844932
vt 0.915819 0.230102
vt 0.963338 0.978383
vt 0.98452 0.978383
vt 0.98452 0.954297
vt 0.963338 0.462358
vt 0.98452 0.71948
vt 0.9562 0.978383
vt 0.9562 0.462358
vt 0.915035 0.71948
vt 0.915035 0.462358
vt 0.915035 0.48593
vt 0.98452 0.462358
vt 0.98452 0.48593
vt 0.896291 0.953683
vt 0.896291 0.596839
vt 0.872204 0.953683
vt 0.915035 0.954297
vt 0.915035 0.978383
vt 0.872204 0.596839
vt 0.842524 0.596839
vt 0.842524 0.953683
vt 0.866096 0.953683
vt 0.866096 0.596839
# 344 normals
vn 0.646803 0.762657 0
vn 0 0 -1
vn 3.61049e-007 1 0
vn 0.646803 0.762657 0
vn 3.61049e-007 1 0
vn 0 0 -1
vn 0.646804 -0.762656 0
vn 3.61051e-007 -1 0
vn 0 0 -1
vn 0.646804 -0.762656 0
vn 0 0 -1
vn 3.61051e-007 -1 0
vn 0.957609 0.288072 0
vn 0 0 -1
vn 0.957609 0.288072 0
vn -0.646802 0.762658 0
vn 0 0 -1
vn -0.957609 0.288072 0
vn 0 0 -1
vn -0.957609 -0.288072 0
vn 0 0 -1
vn 0.957609 -0.288072 0
vn 0 0 -1
vn -0.646804 -0.762657 0
vn 0 0 -1
vn -0.646802 0.762658 0
vn -0.957609 0.288072 0
vn -0.957609 -0.288072 0
vn 0.957609 -0.288072 0
vn -0.646804 -0.762657 0
vn 0 -1 0
vn 0 0 1
vn -1 0 0
vn 0 1.68258e-015 -1
vn 0 -1 4.79547e-015
vn -1 0 0
vn 0 -1 0
vn 0 0 1
vn 1 0 0
vn 0 1.68258e-015 -1
vn 0 -1 7.38558e-015
vn 1 0 0
vn 0 0 -1
vn 0 -1 -8.9782e-017
vn -1 0 0
vn 0 -1 -8.9782e-017
vn 0 0 1
vn -1 0 0
vn 0 -1 -8.9782e-017
vn 0 0 1
vn 1 0 0
vn 0 0 -1
vn 0 -1 -8.9782e-017
vn 1 0 0
vn 0 8.4129e-016 -1
vn 1 0 0
vn 0 8.4129e-016 -1
vn -1 0 0
vn 0 1.68258e-015 -1
vn -0.954357 0 -0.298667
vn 0 0.921125 -0.389268
vn 0.954357 0 -0.298667
vn 0 0 -1
vn -0.954357 0 -0.298667
vn 0.954357 0 -0.298667
vn 0 -0.94515 -0.326637
vn 0 0 -1
vn -1 0 0
vn 0 0 -1
vn 1 0 0
vn 0 0 -1
vn 0.921125 0 -0.389268
vn 0 -0.94515 -0.326637
vn 0 8.4129e-016 -1
vn 0.921125 0 -0.389268
vn 0 0.921125 -0.389268
vn 0 0 -1
vn -0.913257 0 -0.407384
vn 0 -0.94515 -0.326637
vn 0 8.4129e-016 -1
vn -0.913257 0 -0.407384
vn 0 0.921125 -0.389268
vn -0.954357 0 -0.298667
vn 0 -0.94515 -0.326637
vn 0 0 -1
vn -0.954357 0 -0.298667
vn 0 0.921125 -0.389268
vn 0 0 -1
vn 0.921125 0 -0.389268
vn 0 0.921125 -0.389268
vn 0 0 -1
vn 0.921125 0 -0.389268
vn 0 -0.94515 -0.326637
vn 0 0 -1
vn 0 0 -1
vn 0.954357 0 -0.298667
vn 0 0.921125 -0.389268
vn 0 0 -1
vn 0.954357 0 -0.298667
vn 0 -0.94515 -0.326637
vn 0 0 -1
vn -0.913257 0 -0.407384
vn 0 -0.94515 -0.326637
vn 0 0 -1
vn -0.913257 0 -0.407384
vn 0 0.921125 -0.389268
vn -0.317276 -0.948333 1.65223e-015
vn 0 -0.47117 -0.882043
vn 0.282606 -0.959236 3.49598e-015
vn 0 -0.47117 -0.882043
vn -0.846984 -0.531619 0
vn 0 -0.47117 -0.882043
vn 0 1 0
vn 0.775307 -0.631584 0
vn 0 -0.47117 -0.882043
vn 0 1 0
vn 0.775307 -0.631584 0
vn 0 0 1
vn 0 1 0
vn 0.429194 -0.903212 0
vn 0 0 1
vn -0.483932 -0.875106 0
vn 0 0 1
vn -0.846984 -0.531619 0
vn 0 0 1
vn 0 1 0
vn -1 1.73225e-015 0
vn 0 -0.335726 -0.94196
vn 1 -6.92899e-015 0
vn 0 -0.591815 -0.806074
vn -1 6.92899e-015 0
vn 0 -0.591815 -0.806074
vn 1 -1.73225e-015 0
vn 0 -0.335726 -0.94196
vn -1 5.12207e-016 0
vn 0 -0.855375 -0.51801
vn 1 -1.53662e-015 0
vn 0 -0.686108 -0.7275
vn 0 -0.00197166 0.999998
vn -1 1.53662e-015 0
vn 0 -0.686108 -0.7275
vn 0 -0.00197166 0.999998
vn 1 -5.12207e-016 0
vn 0 -0.855375 -0.51801
vn -1 0 0
vn 0 -0.862076 -0.506778
vn 1 0 0
vn 0 -0.862076 -0.506778
vn 1 -1.10959e-015 0
vn 0 -0.00197166 0.999998
vn 1 -3.82957e-016 0
vn 0 -0.549857 -0.835259
vn 1 -2.00566e-015 0
vn 0 -0.645418 -0.76383
vn 1 -9.54151e-016 0
vn 0 -0.951724 -0.306954
vn 1 0 0
vn 0 -0.983876 -0.178853
vn 1 -3.46449e-015 0
vn 0 -0.893379 -0.449304
vn -1 3.82957e-016 0
vn 0 -0.549857 -0.835259
vn -1 2.00566e-015 0
vn 0 -0.645418 -0.76383
vn -1 1.10959e-015 0
vn 0 -0.00197166 0.999998
vn -1 3.46449e-015 0
vn 0 -0.893379 -0.449304
vn -1 0 0
vn 0 -0.983876 -0.178853
vn -1 9.54151e-016 0
vn 0 -0.951724 -0.306954
vn 0 0.955515 -0.294942
vn -0.993748 -0.106681 0.0329296
vn -4.94109e-015 -0.955515 -0.294942
vn -0.993748 0.106681 0.0329296
vn -1.05232e-014 -0.820421 -0.571759
vn -0.994478 0.0863665 0.0596185
vn -2.68315e-015 -0.32068 -0.947188
vn -0.994787 0.0329971 0.0964884
vn 0 0.32068 -0.947188
vn -0.994787 -0.0329971 0.0964884
vn 0 0.820421 -0.571759
vn -0.994478 -0.0863665 0.0596185
vn 0 0.955515 -0.294942
vn 0.993748 -0.106681 0.0329296
vn 0 -0.955515 -0.294942
vn 0.993748 0.106681 0.0329296
vn -5.26159e-015 -0.820421 -0.571759
vn 0.994478 0.0863665 0.0596185
vn 0 -0.32068 -0.947188
vn 0.994787 0.0329971 0.0964884
vn 0 0.32068 -0.947188
vn 0.994787 -0.0329971 0.0964884
vn 0 0.820421 -0.571759
vn 0.994478 -0.0863665 0.0596185
vn 0 -0.955515 0.294942
vn -0.993748 -0.106681 0.0329296
vn 0 -0.820421 0.571759
vn -0.994478 -0.0863665 0.0596185
vn 0 -0.32068 0.947188
vn -0.994787 -0.0329971 0.0964884
vn 0 0.32068 0.947188
vn -0.994787 0.0329971 0.0964884
vn 0 0.820421 0.571759
vn -0.994478 0.0863665 0.0596185
vn 0 0.955515 0.294942
vn -0.993748 0.106681 0.0329296
vn 0 -0.955515 0.294942
vn 0.993748 -0.106681 0.0329296
vn 0 0.955515 0.294942
vn 0.993748 0.106681 0.0329296
vn 0 0.820421 0.571759
vn 0.994478 0.0863665 0.0596185
vn 0 0.32068 0.947188
vn 0.994787 0.0329971 0.0964884
vn 0 -0.32068 0.947188
vn 0.994787 -0.0329971 0.0964884
vn 0 -0.820421 0.571759
vn 0.994478 -0.0863665 0.0596185
vn 0 0.955515 -0.294942
vn -0.993748 -0.106681 0.0329296
vn -4.94109e-015 -0.955515 -0.294942
vn -0.993748 0.106681 0.0329296
vn -1.05232e-014 -0.820421 -0.571759
vn -0.994478 0.0863665 0.0596185
vn -2.68315e-015 -0.32068 -0.947188
vn -0.994787 0.0329971 0.0964884
vn 0 0.32068 -0.947188
vn -0.994787 -0.0329971 0.0964884
vn 0 0.820421 -0.571759
vn -0.994478 -0.0863665 0.0596185
vn 0 0.955515 -0.294942
vn 0.993748 -0.106681 0.0329296
vn 0 -0.955515 -0.294942
vn 0.993748 0.106681 0.0329296
vn -5.26159e-015 -0.820421 -0.571759
vn 0.994478 0.0863665 0.0596185
vn 0 -0.32068 -0.947188
vn 0.994787 0.0329971 0.0964884
vn 0 0.32068 -0.947188
vn 0.994787 -0.0329971 0.0964884
vn 0 0.820421 -0.571759
vn 0.994478 -0.0863665 0.0596185
vn 0 -0.955515 0.294942
vn -0.993748 -0.106681 0.0329296
vn 0 -0.820421 0.571759
vn -0.994478 -0.0863665 0.0596185
vn 0 -0.32068 0.947188
vn -0.994787 -0.0329971 0.0964884
vn 0 0.32068 0.947188
vn -0.994787 0.0329971 0.0964884
vn 0 0.820421 0.571759
vn -0.994478 0.0863665 0.0596185
vn 0 0.955515 0.294942
vn -0.993748 0.106681 0.0329296
vn 0 -0.955515 0.294942
vn 0.993748 -0.106681 0.0329296
vn 0 0.955515 0.294942
vn 0.993748 0.106681 0.0329296
vn 0 0.820421 0.571759
vn 0.994478 0.0863665 0.0596185
vn 0 0.32068 0.947188
vn 0.994787 0.0329971 0.0964884
vn 0 -0.32068 0.947188
vn 0.994787 -0.0329971 0.0964884
vn 0 -0.820421 0.571759
vn 0.994478 -0.0863665 0.0596185
vn 0 -0.335726 -0.94196
vn -1 0 0
vn 0 -0.591815 -0.806074
vn 1 0 0
vn 0 -0.591815 -0.806074
vn -1 0 0
vn 0 -0.335726 -0.94196
vn 1 0 0
vn 0 -0.855375 -0.51801
vn -1 -4.62933e-015 0
vn 0 -0.686108 -0.7275
vn 0 -0.00197166 0.999998
vn 1 -1.53662e-015 0
vn 0 -0.686108 -0.7275
vn 0 -0.00197166 0.999998
vn -1 1.53662e-015 0
vn 0 -0.855375 -0.51801
vn 1 4.78215e-015 0
vn 0 -0.862076 -0.506778
vn -1 -1.54246e-014 0
vn 0 -0.862076 -0.506778
vn 1 1.54246e-014 0
vn 0 -0.00197166 0.999998
vn 1 4.69802e-016 0
vn 0 -0.549857 -0.835259
vn 1 4.52844e-015 0
vn 0 -0.645418 -0.76383
vn 1 1.71358e-015 0
vn 0 -0.951724 -0.306954
vn 1 1.9083e-015 0
vn 0 -0.983876 -0.178853
vn 1 0 0
vn 0 -0.893379 -0.449304
vn 1 0 0
vn 0 -0.549857 -0.835259
vn -1 -4.37562e-015 0
vn 0 -0.645418 -0.76383
vn -1 -1.71358e-015 0
vn 0 -0.00197166 0.999998
vn -1 -3.78109e-016 0
vn 0 -0.893379 -0.449304
vn -1 0 0
vn 0 -0.983876 -0.178853
vn -1 0 0
vn 0 -0.951724 -0.306954
vn -1 -1.9083e-015 0
vn 0.646803 0.762657 0
vn 0 0 -1
vn 3.61049e-007 1 0
vn 0.646803 0.762657 0
vn 3.61049e-007 1 0
vn 0 0 -1
vn 0.646804 -0.762656 0
vn 3.61051e-007 -1 0
vn 0 0 -1
vn 0.646804 -0.762656 0
vn 0 0 -1
vn 3.61051e-007 -1 0
vn 0.957609 0.288072 0
vn 0 0 -1
vn 0.957609 0.288072 0
vn -0.646802 0.762658 0
vn 0 0 -1
vn -0.957609 0.288072 0
vn 0 0 -1
vn -0.957609 -0.288072 0
vn 0 0 -1
vn 0.957609 -0.288072 0
vn 0 0 -1
vn -0.646804 -0.762657 0
vn 0 0 -1
vn -0.646802 0.762658 0
vn -0.957609 0.288072 0
vn -0.957609 -0.288072 0
vn 0.957609 -0.288072 0
vn -0.646804 -0.762657 0
usemtl cupboard01_D
g mesh
s 1
f 1/1/2 11/3/17 4/2/6
f 6/4/9 15/6/25 7/5/11
f 7/5/11 15/6/25 14/7/23
f 9/8/14 12/9/19 1/1/2
f 11/3/17 1/1/2 12/9/19
f 12/9/19 9/8/14 13/10/21
f 13/10/21 14/7/23 15/6/25
f 14/7/23 13/10/21 9/8/14
f 21/11/33 33/13/68 26/12/48
f 22/14/36 30/15/58 21/11/33
f 23/14/39 29/16/56 24/11/42
f 26/12/48 33/13/68 25/17/45
f 27/17/51 34/18/70 23/14/39
f 28/12/54 34/18/70 27/17/51
f 29/16/56 23/14/39 34/18/70
f 31/19/61 43/21/97 38/20/82
f 33/13/68 21/11/33 30/15/58
f 37/22/79 45/24/103 32/23/66
f 40/25/88 42/27/94 39/26/85
f 41/28/91 42/27/94 40/25/88
f 44/29/100 32/23/66 45/24/103
f 46/30/106 38/20/82 43/21/97
f 50/31/116 49/33/113 51/32/119
f 51/32/119 49/33/113 54/34/126
f 125/35/270 146/37/314 143/36/308
f 127/38/274 144/39/310 125/35/270
f 128/35/276 140/39/302 126/38/272
f 129/40/278 141/42/304 133/41/288
f 131/43/284 143/36/308 129/40/278
f 132/40/286 135/36/292 130/43/281
f 132/40/286 136/42/294 135/36/292
f 134/41/290 136/42/294 132/40/286
f 135/36/292 138/37/298 128/35/276
f 137/44/296 135/36/292 136/42/294
f 138/37/298 135/36/292 137/44/296
f 139/45/300 128/35/276 138/37/298
f 140/39/302 128/35/276 139/45/300
f 141/42/304 129/40/278 143/36/308
f 141/42/304 143/36/308 142/44/306
f 142/44/306 143/36/308 146/37/314
f 145/45/312 125/35/270 144/39/310
f 146/37/314 125/35/270 145/45/312
f 147/1/316 157/3/331 150/2/320
f 152/4/323 161/6/339 153/5/325
f 153/5/325 161/6/339 160/7/337
f 155/8/328 158/9/333 147/1/316
f 157/3/331 147/1/316 158/9/333
f 158/9/333 155/8/328 159/10/335
f 159/10/335 160/7/337 161/6/339
f 160/7/337 159/10/335 155/8/328
s 2
f 1/1/1 4/2/5 3/46/4
f 3/46/4 4/2/5 2/47/3
f 3/46/4 9/8/13 1/1/1
f 4/2/5 16/48/26 2/47/3
f 5/49/7 8/50/12 7/5/10
f 7/5/10 8/50/12 6/4/8
f 7/5/10 19/51/29 5/49/7
f 8/50/12 15/6/24 6/4/8
f 9/8/13 19/51/29 14/7/22
f 10/52/15 9/8/13 3/46/4
f 10/52/15 19/51/29 9/8/13
f 11/3/16 16/48/26 4/2/5
f 12/9/18 16/48/26 11/3/16
f 12/9/18 18/54/28 17/53/27
f 13/10/20 18/54/28 12/9/18
f 14/7/22 19/51/29 7/5/10
f 15/6/24 18/54/28 13/10/20
f 17/53/27 16/48/26 12/9/18
f 20/55/30 15/6/24 8/50/12
f 20/55/30 18/54/28 15/6/24
f 21/56/32 54/58/125 53/57/123
f 23/59/38 26/61/47 27/60/50
f 26/61/47 23/59/38 21/56/32
f 32/62/66 42/64/93 35/63/73
f 32/65/65 43/67/96 31/66/62
f 36/68/76 40/70/87 31/69/61
f 38/71/81 45/73/102 37/72/78
f 39/74/84 42/64/93 32/62/66
f 40/70/87 36/68/76 41/75/90
f 43/67/96 32/65/65 44/76/99
f 45/73/102 38/71/81 46/77/105
f 48/78/110 49/80/112 50/79/115
f 49/80/112 48/78/110 47/81/108
f 52/82/121 51/83/118 23/59/38
f 54/58/125 21/56/32 23/59/38
f 54/58/125 23/59/38 51/83/118
f 60/84/139 65/86/150 61/85/142
f 61/85/142 65/86/150 73/87/166
f 78/88/176 93/90/206 79/89/178
f 79/89/178 93/90/206 80/91/180
f 80/91/180 91/93/202 81/92/182
f 81/92/182 91/93/202 82/94/184
f 82/94/184 89/96/198 77/95/174
f 83/97/186 100/94/220 88/98/196
f 85/90/190 96/100/212 84/99/188
f 86/101/192 98/91/216 85/90/190
f 87/93/194 98/91/216 86/101/192
f 88/98/196 100/94/220 87/93/194
f 89/96/198 82/94/184 90/98/200
f 90/98/200 82/94/184 91/93/202
f 91/93/202 80/91/180 92/101/204
f 92/101/204 80/91/180 93/90/206
f 93/90/206 78/88/176 94/102/208
f 95/103/210 100/94/220 83/97/186
f 96/100/212 85/90/190 97/89/214
f 97/89/214 85/90/190 98/91/216
f 98/91/216 87/93/194 99/92/218
f 99/92/218 87/93/194 100/94/220
f 102/88/224 117/90/254 103/89/226
f 103/89/226 117/90/254 104/91/228
f 104/91/228 115/93/250 105/92/230
f 105/92/230 115/93/250 106/94/232
f 106/94/232 113/96/246 101/95/222
f 107/97/234 124/94/268 112/98/244
f 109/90/238 120/100/260 108/99/236
f 110/101/240 122/91/264 109/90/238
f 111/93/242 122/91/264 110/101/240
f 112/98/244 124/94/268 111/93/242
f 113/96/246 106/94/232 114/98/248
f 114/98/248 106/94/232 115/93/250
f 115/93/250 104/91/228 116/101/252
f 116/101/252 104/91/228 117/90/254
f 117/90/254 102/88/224 118/102/256
f 119/103/258 124/94/268 107/97/234
f 120/100/260 109/90/238 121/89/262
f 121/89/262 109/90/238 122/91/264
f 122/91/264 111/93/242 123/92/266
f 123/92/266 111/93/242 124/94/268
f 147/1/315 150/2/319 149/46/318
f 149/46/318 150/2/319 148/47/317
f 149/46/318 155/8/327 147/1/315
f 150/2/319 162/48/340 148/47/317
f 151/49/321 154/50/326 153/5/324
f 153/5/324 154/50/326 152/4/322
f 153/5/324 165/51/343 151/49/321
f 154/50/326 161/6/338 152/4/322
f 155/8/327 165/51/343 160/7/336
f 156/52/329 155/8/327 149/46/318
f 156/52/329 165/51/343 155/8/327
f 157/3/330 162/48/340 150/2/319
f 158/9/332 162/48/340 157/3/330
f 158/9/332 164/54/342 163/53/341
f 159/10/334 164/54/342 158/9/332
f 160/7/336 165/51/343 153/5/324
f 161/6/338 164/54/342 159/10/334
f 163/53/341 162/48/340 158/9/332
f 166/55/344 161/6/338 154/50/326
f 166/55/344 164/54/342 161/6/338
s 3
f 21/104/31 53/106/122 22/105/35
f 22/107/35 48/109/109 24/108/41
f 22/105/35 53/106/122 47/110/107
f 23/106/37 48/111/109 52/104/120
f 24/112/41 48/111/109 23/106/37
f 25/113/44 27/115/49 26/114/46
f 28/116/53 27/115/49 25/113/44
f 31/117/60 40/77/86 32/72/64
f 35/118/72 42/120/92 36/119/75
f 39/121/83 32/72/64 40/77/86
f 41/122/89 36/119/75 42/120/92
f 44/123/98 45/125/101 43/124/95
f 46/126/104 43/124/95 45/125/101
f 47/127/107 48/109/109 22/107/35
f 47/128/107 53/130/122 49/129/111
f 50/131/114 51/133/117 48/132/109
f 52/134/120 48/132/109 51/133/117
f 54/135/124 49/129/111 53/130/122
f 55/136/128 58/138/134 57/137/132
f 56/139/130 70/140/160 57/137/132
f 57/137/132 58/138/134 56/139/130
f 57/137/132 70/140/160 74/141/168
f 59/142/136 62/144/144 61/143/141
f 59/142/136 63/145/146 62/144/144
f 61/143/141 62/144/144 60/146/138
f 62/144/144 63/145/146 64/147/148
f 63/145/146 66/148/152 64/147/148
f 66/148/152 72/150/164 67/149/154
f 67/149/154 72/150/164 68/151/156
f 68/151/156 72/150/164 76/152/172
f 68/151/156 75/154/170 69/153/158
f 69/153/158 75/154/170 70/140/160
f 70/140/160 75/154/170 74/141/168
f 71/155/162 66/148/152 63/145/146
f 71/155/162 72/150/164 66/148/152
f 76/152/172 75/154/170 68/151/156
f 77/156/173 83/158/185 82/157/183
f 78/159/175 85/161/189 84/160/187
f 79/162/177 85/161/189 78/159/175
f 80/163/179 85/161/189 79/162/177
f 80/163/179 87/165/193 86/164/191
f 81/166/181 87/165/193 80/163/179
f 82/157/183 83/158/185 88/167/195
f 82/157/183 87/165/193 81/166/181
f 86/164/191 85/161/189 80/163/179
f 88/167/195 87/165/193 82/157/183
f 90/168/199 100/170/219 89/169/197
f 91/171/201 100/170/219 90/168/199
f 92/172/203 98/173/215 91/171/201
f 93/174/205 98/173/215 92/172/203
f 94/175/207 96/176/211 93/174/205
f 95/177/209 89/169/197 100/170/219
f 97/178/213 93/174/205 96/176/211
f 98/173/215 93/174/205 97/178/213
f 99/179/217 91/171/201 98/173/215
f 100/170/219 91/171/201 99/179/217
f 101/156/221 107/158/233 106/157/231
f 102/159/223 109/161/237 108/160/235
f 103/162/225 109/161/237 102/159/223
f 104/163/227 109/161/237 103/162/225
f 104/163/227 111/165/241 110/164/239
f 105/166/229 111/165/241 104/163/227
f 106/157/231 107/158/233 112/167/243
f 106/157/231 111/165/241 105/166/229
f 110/164/239 109/161/237 104/163/227
f 112/167/243 111/165/241 106/157/231
f 114/168/247 124/170/267 113/169/245
f 115/171/249 124/170/267 114/168/247
f 116/172/251 122/173/263 115/171/249
f 117/174/253 122/173/263 116/172/251
f 118/175/255 120/176/259 117/174/253
f 119/177/257 113/169/245 124/170/267
f 121/178/261 117/174/253 120/176/259
f 122/173/263 117/174/253 121/178/261
f 123/179/265 115/171/249 122/173/263
f 124/170/267 115/171/249 123/179/265
f 130/84/280 135/86/291 131/85/283
f 131/85/283 135/86/291 143/87/307
s 4
f 22/180/34 38/182/80 30/181/57
f 24/183/40 31/184/59 22/180/34
f 25/185/43 32/187/63 28/186/52
f 28/186/52 35/189/71 34/188/69
f 29/190/55 36/191/74 24/183/40
f 30/192/57 38/194/80 33/193/67
f 31/184/59 24/183/40 36/191/74
f 32/187/63 25/185/43 37/195/77
f 33/196/67 37/195/77 25/185/43
f 33/193/67 38/194/80 37/197/77
f 34/198/69 36/200/74 29/199/55
f 35/189/71 28/186/52 32/187/63
f 35/201/71 36/200/74 34/198/69
f 38/182/80 22/180/34 31/184/59
f 55/35/127 76/37/171 73/36/165
f 57/38/131 74/39/167 55/35/127
f 58/35/133 70/39/159 56/38/129
f 59/40/135 71/42/161 63/41/145
f 61/43/140 73/36/165 59/40/135
f 62/40/143 65/36/149 60/43/137
f 62/40/143 66/42/151 65/36/149
f 64/41/147 66/42/151 62/40/143
f 65/36/149 68/37/155 58/35/133
f 67/44/153 65/36/149 66/42/151
f 68/37/155 65/36/149 67/44/153
f 69/45/157 58/35/133 68/37/155
f 70/39/159 58/35/133 69/45/157
f 71/42/161 59/40/135 73/36/165
f 71/42/161 73/36/165 72/44/163
f 72/44/163 73/36/165 76/37/171
f 75/45/169 55/35/127 74/39/167
f 76/37/171 55/35/127 75/45/169
f 125/136/269 128/138/275 127/137/273
f 126/139/271 140/140/301 127/137/273
f 127/137/273 128/138/275 126/139/271
f 127/137/273 140/140/301 144/141/309
f 129/142/277 132/144/285 131/143/282
f 129/142/277 133/145/287 132/144/285
f 131/143/282 132/144/285 130/146/279
f 132/144/285 133/145/287 134/147/289
f 133/145/287 136/148/293 134/147/289
f 136/148/293 142/150/305 137/149/295
f 137/149/295 142/150/305 138/151/297
f 138/151/297 142/150/305 146/152/313
f 138/151/297 145/154/311 139/153/299
f 139/153/299 145/154/311 140/140/301
f 140/140/301 145/154/311 144/141/309
f 141/155/303 136/148/293 133/145/287
f 141/155/303 142/150/305 136/148/293
f 146/152/313 145/154/311 138/151/297
