# Wavefront OBJ
# Created by fragMOTION
# http://www.fragmosoft.com

mtllib table01.mtl
# 280 vertices
v -52.6077 38.2429 -31.6409
v -52.6077 38.2429 31.6409
v 52.6077 38.2429 31.6409
v 52.6077 38.2429 -31.6409
v -52.6077 38.1407 -32.0221
v -52.7984 38.1407 -31.971
v -52.938 38.1407 -31.8315
v -52.989 38.1407 -31.6409
v -52.989 38.1407 31.6409
v -52.938 38.1407 31.8315
v -52.7984 38.1407 31.971
v -52.6077 38.1407 32.0221
v 52.6077 38.1407 32.0221
v 52.7984 38.1407 31.971
v 52.9379 38.1407 31.8315
v 52.989 38.1407 31.6409
v 52.989 38.1407 -31.6409
v 52.9379 38.1407 -31.8315
v 52.7984 38.1407 -31.971
v 52.6077 38.1407 -32.0221
v -52.6077 37.8617 -32.3012
v -52.938 37.8617 -32.2127
v -53.1796 37.8617 -31.971
v -53.2681 37.8617 -31.6409
v -53.2681 37.8617 31.6409
v -53.1796 37.8617 31.971
v -52.938 37.8617 32.2127
v -52.6077 37.8617 32.3012
v 52.6077 37.8617 32.3012
v 52.9379 37.8617 32.2127
v 53.1796 37.8617 31.971
v 53.268 37.8617 31.6409
v 53.268 37.8617 -31.6409
v 53.1796 37.8617 -31.971
v 52.9379 37.8617 -32.2127
v 52.6077 37.8617 -32.3012
v -52.6077 37.4804 -32.4033
v -52.989 37.4804 -32.3012
v -53.2681 37.4804 -32.0221
v -53.3702 37.4804 -31.6409
v -53.3702 37.4804 31.6409
v -53.2681 37.4804 32.0221
v -52.989 37.4804 32.3012
v -52.6077 37.4804 32.4033
v 52.6077 37.4804 32.4033
v 52.989 37.4804 32.3012
v 53.268 37.4804 32.0221
v 53.3702 37.4804 31.6409
v 53.3702 37.4804 -31.6409
v 53.268 37.4804 -32.0221
v 52.989 37.4804 -32.3012
v 52.6077 37.4804 -32.4033
v -52.6077 35.1932 -32.4033
v -52.989 35.1932 -32.3012
v -53.2681 35.1932 -32.0221
v -53.3702 35.1932 -31.6409
v -53.3702 35.1932 31.6409
v -53.2681 35.1932 32.0221
v -52.989 35.1932 32.3012
v -52.6077 35.1932 32.4033
v 52.6077 35.1932 32.4033
v 52.989 35.1932 32.3012
v 53.268 35.1932 32.0221
v 53.3702 35.1932 31.6409
v 53.3702 35.1932 -31.6409
v 53.268 35.1932 -32.0221
v 52.989 35.1932 -32.3012
v 52.6077 35.1932 -32.4033
v -52.6077 34.8119 -32.3012
v -52.938 34.8119 -32.2127
v -53.1796 34.8119 -31.971
v -53.2681 34.8119 -31.6409
v -53.2681 34.8119 31.6409
v -53.1796 34.8119 31.971
v -52.938 34.8119 32.2127
v -52.6077 34.8119 32.3012
v 52.6077 34.8119 32.3012
v 52.9379 34.8119 32.2127
v 53.1796 34.8119 31.971
v 53.268 34.8119 31.6409
v 53.268 34.8119 -31.6409
v 53.1796 34.8119 -31.971
v 52.9379 34.8119 -32.2127
v 52.6077 34.8119 -32.3012
v -52.6077 34.5328 -32.0221
v -52.7984 34.5328 -31.971
v -52.938 34.5328 -31.8315
v -52.989 34.5328 -31.6409
v -52.989 34.5328 31.6409
v -52.938 34.5328 31.8315
v -52.7984 34.5328 31.971
v -52.6077 34.5328 32.0221
v 52.6077 34.5328 32.0221
v 52.7984 34.5328 31.971
v 52.9379 34.5328 31.8315
v 52.989 34.5328 31.6409
v 52.989 34.5328 -31.6409
v 52.9379 34.5328 -31.8315
v 52.7984 34.5328 -31.971
v 52.6077 34.5328 -32.0221
v -52.6077 34.4307 -31.6409
v -52.6077 34.4307 31.6409
v 52.6077 34.4307 31.6409
v 52.6077 34.4307 -31.6409
v -48.5247 0 -25.4285
v -48.8001 16.964 -25.153
v -44.5765 16.964 -25.153
v -44.852 0 -25.4285
v -48.5247 0 -29.1011
v -48.8001 16.964 -29.3766
v -44.5765 16.964 -29.3766
v -44.852 0 -29.1011
v -48.7157 17.4075 -25.2375
v -44.661 17.4075 -25.2375
v -44.661 17.4075 -29.2921
v -48.7157 17.4075 -29.2921
v -48.6062 17.7814 -25.347
v -44.7705 17.7814 -25.347
v -44.7705 17.7814 -29.1826
v -48.6062 17.7814 -29.1826
v -48.3224 18.3291 -25.6308
v -45.0543 18.3291 -25.6308
v -45.0543 18.3291 -28.8988
v -48.3224 18.3291 -28.8988
v -48.3942 18.8074 -25.5589
v -44.9824 18.8074 -25.5589
v -44.9824 18.8074 -28.9707
v -48.3942 18.8074 -28.9707
v -48.6228 19.39 -25.3303
v -44.7539 19.39 -25.3303
v -44.7539 19.39 -29.1993
v -48.6228 19.39 -29.1993
v -49.2396 34.6636 -24.7136
v -44.1371 34.6636 -24.7136
v -44.1371 34.6636 -29.816
v -49.2396 34.6636 -29.816
v -48.5247 0 28.9258
v -48.8001 16.964 29.2013
v -44.5765 16.964 29.2013
v -44.852 0 28.9258
v -48.5247 0 25.2531
v -48.8001 16.964 24.9777
v -44.5765 16.964 24.9777
v -44.852 0 25.2531
v -48.7157 17.4075 29.1168
v -44.661 17.4075 29.1168
v -44.661 17.4075 25.0621
v -48.7157 17.4075 25.0621
v -48.6062 17.7814 29.0073
v -44.7705 17.7814 29.0073
v -44.7705 17.7814 25.1716
v -48.6062 17.7814 25.1716
v -48.3224 18.3291 28.7235
v -45.0543 18.3291 28.7235
v -45.0543 18.3291 25.4555
v -48.3224 18.3291 25.4555
v -48.3942 18.8074 28.7954
v -44.9824 18.8074 28.7954
v -44.9824 18.8074 25.3836
v -48.3942 18.8074 25.3836
v -48.6228 19.39 29.024
v -44.7539 19.39 29.024
v -44.7539 19.39 25.155
v -48.6228 19.39 25.155
v -49.2396 34.6636 29.6407
v -44.1371 34.6636 29.6407
v -44.1371 34.6636 24.5383
v -49.2396 34.6636 24.5383
v 45.0939 0 -25.4285
v 44.8185 16.964 -25.153
v 49.042 16.964 -25.153
v 48.7666 0 -25.4285
v 45.0939 0 -29.1011
v 44.8185 16.964 -29.3766
v 49.042 16.964 -29.3766
v 48.7666 0 -29.1011
v 44.9029 17.4075 -25.2375
v 48.9576 17.4075 -25.2375
v 48.9576 17.4075 -29.2921
v 44.9029 17.4075 -29.2921
v 45.0124 17.7814 -25.347
v 48.8481 17.7814 -25.347
v 48.8481 17.7814 -29.1826
v 45.0124 17.7814 -29.1826
v 45.2962 18.3291 -25.6308
v 48.5643 18.3291 -25.6308
v 48.5643 18.3291 -28.8988
v 45.2962 18.3291 -28.8988
v 45.2243 18.8074 -25.5589
v 48.6362 18.8074 -25.5589
v 48.6362 18.8074 -28.9707
v 45.2243 18.8074 -28.9707
v 44.9958 19.39 -25.3303
v 48.8647 19.39 -25.3303
v 48.8647 19.39 -29.1993
v 44.9958 19.39 -29.1993
v 44.379 34.6636 -24.7136
v 49.4815 34.6636 -24.7136
v 49.4815 34.6636 -29.816
v 44.379 34.6636 -29.816
v 45.0939 0 28.9258
v 44.8185 16.964 29.2013
v 49.042 16.964 29.2013
v 48.7666 0 28.9258
v 45.0939 0 25.2531
v 44.8185 16.964 24.9777
v 49.042 16.964 24.9777
v 48.7666 0 25.2531
v 44.9029 17.4075 29.1168
v 48.9576 17.4075 29.1168
v 48.9576 17.4075 25.0621
v 44.9029 17.4075 25.0621
v 45.0124 17.7814 29.0073
v 48.8481 17.7814 29.0073
v 48.8481 17.7814 25.1716
v 45.0124 17.7814 25.1716
v 45.2962 18.3291 28.7235
v 48.5643 18.3291 28.7235
v 48.5643 18.3291 25.4555
v 45.2962 18.3291 25.4555
v 45.2243 18.8074 28.7954
v 48.6362 18.8074 28.7954
v 48.6362 18.8074 25.3836
v 45.2243 18.8074 25.3836
v 44.9958 19.39 29.024
v 48.8647 19.39 29.024
v 48.8647 19.39 25.155
v 44.9958 19.39 25.155
v 44.379 34.6636 29.6407
v 49.4815 34.6636 29.6407
v 49.4815 34.6636 24.5383
v 44.379 34.6636 24.5383
v -48.4836 33.9221 28.9431
v -48.4836 34.9909 28.9431
v 48.4836 34.9909 28.9431
v 48.4836 33.9221 28.9431
v -48.4836 33.9221 -28.9431
v -48.4836 34.9909 -28.9431
v 48.4836 34.9909 -28.9431
v 48.4836 33.9221 -28.9431
v 48.0957 33.1344 28.7115
v -48.0957 33.1344 28.7115
v -48.0957 33.1344 -28.7115
v 48.0957 33.1344 -28.7115
v 46.749 32.4737 27.9076
v -46.749 32.4737 27.9076
v -46.749 32.4737 -27.9076
v 46.749 32.4737 -27.9076
v 45.8141 31.6606 27.3495
v -45.8141 31.6606 27.3495
v -45.8141 31.6606 -27.3495
v 45.8141 31.6606 -27.3495
v 45.8141 30.6696 27.3495
v -45.8141 30.6696 27.3495
v -45.8141 30.6696 -27.3495
v 45.8141 30.6696 -27.3495
v 46.4555 29.9073 27.7324
v -46.4555 29.9073 27.7324
v -46.4555 29.9073 -27.7324
v 46.4555 29.9073 -27.7324
v 46.4555 29.1653 27.7324
v -46.4555 29.1653 27.7324
v -46.4555 29.1653 -27.7324
v 46.4555 29.1653 -27.7324
v 46.2696 28.5555 27.6214
v -46.2696 28.5555 27.6214
v -46.2696 28.5555 -27.6214
v 46.2696 28.5555 -27.6214
v 45.6219 27.9659 27.2347
v -45.6219 27.9659 27.2347
v -45.6219 27.9659 -27.2347
v 45.6219 27.9659 -27.2347
v 42.4082 27.9659 24.021
v -42.4082 27.9659 24.021
v -42.4082 27.9659 -24.021
v 42.4082 27.9659 -24.021
v -45.2699 34.9909 25.7294
v 45.2699 34.9909 25.7294
v 45.2699 34.9909 -25.7294
v -45.2699 34.9909 -25.7294
# 283 texture vertices
vt 0.170352 1.11134
vt 0.170352 2.90991
vt 1.2521 2.90991
vt 0.869893 0.485831
vt 0.869961 -1.29417
vt 0.881 0.485812
vt 0.292281 1.07732
vt 0.303385 1.07732
vt 0.303388 -1.88289
vt 1.2521 1.11134
vt 0.881063 -1.29414
vt 1.4513 -1.88381
vt 1.4466 1.07639
vt 1.46241 -1.88379
vt 1.4577 1.07641
vt 2.02564 0.490155
vt 2.02517 -1.28985
vt 2.03627 -1.28982
vt 0.292284 -1.88289
vt 0.302259 1.08294
vt 0.314487 1.07732
vt 0.878026 0.497334
vt 0.881111 0.492252
vt 0.313478 1.08708
vt 0.89173 0.495017
vt 0.892077 0.485773
vt 0.892099 -1.29415
vt 0.881112 -1.30035
vt 0.879022 -1.30575
vt 0.891456 -1.30453
vt 0.888706 -1.3134
vt 1.46129 -1.88936
vt 1.4725 -1.89352
vt 1.47351 -1.88377
vt 1.46881 1.07642
vt 1.45657 1.08202
vt 2.03378 0.501656
vt 2.03686 0.496573
vt 1.46778 1.08617
vt 2.04748 0.499333
vt 2.03675 0.490132
vt 2.04782 0.490091
vt 2.03632 -1.29603
vt 2.04731 -1.28983
vt 2.04666 -1.30021
vt 2.03423 -1.30143
vt 0.302264 -1.88851
vt 2.04391 -1.30908
vt 0.313485 -1.89264
vt 0.314491 -1.88289
vt 0.325389 1.08851
vt 0.32559 1.07732
vt 0.325592 -1.88289
vt 0.888922 0.504247
vt 0.901644 0.50862
vt 0.90228 0.497106
vt 0.903157 0.485784
vt 0.903132 -1.29416
vt 0.902172 -1.30537
vt 0.900873 -1.31678
vt 1.48461 -1.88375
vt 1.47991 1.07644
vt 1.47968 1.08763
vt 2.04467 0.508565
vt 2.0574 0.512934
vt 2.05803 0.501421
vt 2.0589 0.490098
vt 2.05834 -1.28985
vt 2.05738 -1.30106
vt 2.05607 -1.31246
vt 0.325385 -1.89408
vt 0.389945 1.07732
vt 0.389946 -1.88288
vt 0.390152 1.08851
vt 0.968554 0.497022
vt 0.967595 0.485808
vt 0.967569 -1.29415
vt 0.968443 -1.30547
vt 0.969078 -1.31698
vt 1.48442 -1.89495
vt 1.54919 -1.89485
vt 1.54896 -1.88366
vt 1.54426 1.07655
vt 1.54445 1.08774
vt 2.12431 0.501317
vt 2.12334 0.490103
vt 2.12278 -1.28985
vt 2.12365 -1.30117
vt 2.12428 -1.31269
vt 0.401047 1.07732
vt 0.969854 0.508428
vt 0.402061 1.08708
vt 0.982022 0.505047
vt 0.979271 0.496178
vt 0.978627 0.485796
vt 0.978649 -1.29414
vt 0.978993 -1.30338
vt 0.981802 -1.31261
vt 1.56007 -1.88364
vt 1.55536 1.07657
vt 1.55634 1.08633
vt 2.12561 0.512721
vt 2.13777 0.509337
vt 2.13502 0.500469
vt 2.13437 0.490087
vt 2.13386 -1.28985
vt 2.1342 -1.29909
vt 0.390158 -1.89408
vt 2.13701 -1.30832
vt 0.402056 -1.89264
vt 0.401047 -1.88288
vt 0.413279 1.08294
vt 0.412151 1.07732
vt 0.412151 -1.88289
vt 0.991707 0.497401
vt 0.989617 0.492002
vt 0.989665 0.485788
vt 0.989728 -1.29418
vt 0.989612 -1.30062
vt 0.992696 -1.3057
vt 1.5611 -1.8934
vt 1.57231 -1.88924
vt 1.57117 -1.88362
vt 1.56647 1.07659
vt 1.56758 1.08225
vt 2.14537 0.49629
vt 2.14541 0.490076
vt 2.14494 -1.28989
vt 2.14482 -1.29633
vt 2.1479 -1.30142
vt 0.413277 -1.88851
vt 0.423256 1.07732
vt 0.423256 -1.88289
vt 1.00077 0.485818
vt 1.00083 -1.2942
vt 1.58227 -1.88361
vt 1.57757 1.07661
vt 2.14745 0.501687
vt 2.15651 0.490103
vt 2.15604 -1.28992
vt 0.170352 1.82816
vt 1.2521 1.82816
vt 0.170352 0.0295984
vt 1.2521 0.0295984
vt 0.408233 0.372909
vt 0.302757 0.372909
vt 0.408233 0.478385
vt 0.302757 0.478385
vt -1.00094 3.12644
vt -1.00094 1.88145
vt -1.19752 3.17071
vt -1.00094 2.92987
vt -1.00094 1.68487
vt -1.19752 2.97414
vt -1.19752 1.6406
vt -1.19752 1.83718
vt 0.302669 -0.0743439
vt 0.294801 0.412911
vt 0.408145 -0.0743532
vt 0.416099 0.412901
vt 0.413674 0.425866
vt 0.297228 0.425876
vt 0.300373 0.437064
vt 0.410531 0.437054
vt 0.402381 0.454774
vt 0.308527 0.454782
vt 0.306463 0.468671
vt 0.404447 0.468662
vt 0.411014 0.486635
vt 0.2999 0.486644
vt 0.282227 0.925647
vt 0.428764 0.925634
vt -0.619206 2.11777
vt -0.619206 -0.0802137
vt -0.80656 -0.154375
vt -0.619206 1.93042
vt -0.619206 -0.267567
vt -0.80656 -0.341728
vt -0.80656 2.19193
vt -0.80656 2.00458
vt -0.942065 4.0847
vt -0.942065 2.5846
vt -1.02535 2.66789
vt -0.913953 3.76168
vt -0.913953 1.24881
vt -0.997235 3.6784
vt -0.997235 1.16553
vt -0.858783 4.00142
vt -0.997235 1.33209
vt -1.02535 4.00142
vt -0.858783 2.66789
vt -0.913953 3.59512
vt -0.708242 -1.10887
vt -0.735938 -1.10886
vt -0.707427 1.404
vt -0.686962 -1.09883
vt -0.735123 1.40401
vt -1.02386 2.79213
vt -0.996168 2.79217
vt -0.994353 1.29207
vt -1.07571 0.910757
vt -1.10341 0.910753
vt -1.10365 2.41085
vt -1.07596 2.41086
vt -1.0532 2.40486
vt -0.707865 1.68084
vt -0.707804 -0.832035
vt -0.735499 -0.832036
vt -0.973406 2.78619
vt -1.02205 1.29203
vt -0.735561 1.68084
vt -0.686527 -0.821983
vt -0.686153 1.39394
vt -1.05296 0.916761
vt -1.01409 0.937601
vt -0.971606 1.2981
vt -0.659198 1.35904
vt -0.686588 1.67079
vt -0.932759 1.31898
vt -0.659621 1.63589
vt -0.659985 -1.06394
vt -1.01433 2.38403
vt -0.982212 2.36957
vt -0.934509 2.76541
vt -0.634418 -1.03971
vt -0.659562 -0.787083
vt -0.902381 2.75098
vt -0.634004 -0.762853
vt -0.633648 1.3348
vt -0.981981 0.952071
vt -0.9563 0.952075
vt -0.900666 1.33348
vt -0.607966 1.33479
vt -0.634062 1.61166
vt -0.874984 1.33351
vt -0.608381 1.61166
vt -0.608737 -1.03972
vt -0.95653 2.36958
vt -0.930715 2.37951
vt -0.876699 2.75101
vt -0.586635 -1.05635
vt -0.608322 -0.762852
vt -0.850894 2.76097
vt -0.586215 -0.779473
vt -0.585854 1.3514
vt -0.930481 0.942157
vt -0.911253 0.94216
vt -0.849155 1.32362
vt -0.566626 1.3514
vt -0.586274 1.62828
vt -0.829927 1.32364
vt -0.567046 1.62828
vt -0.567407 -1.05636
vt -0.911486 2.37951
vt -0.894965 2.37664
vt -0.831666 2.76099
vt -0.551342 -1.05155
vt -0.566987 -0.779473
vt -0.815141 2.75814
vt -0.550923 -0.774657
vt -0.550564 1.34658
vt -0.894732 0.945037
vt -0.872036 0.955062
vt -0.813409 1.32654
vt -0.532299 1.32978
vt -0.550982 1.62347
vt -0.790723 1.33659
vt -0.532711 1.60668
vt -0.533066 -1.03477
vt -0.775502 3.99616
vt -0.775502 2.5846
vt -0.792431 2.74814
vt -0.662121 1.87838
vt -0.662121 -0.486167
vt -0.745403 1.7951
vt -0.532653 -0.75787
vt -0.69222 3.91288
vt -0.872265 2.36662
vt -0.745403 -0.569449
vt -0.745403 -0.402885
vt -0.858783 3.91288
vt -0.69222 2.66789
vt -0.662121 1.71182
# 444 normals
vn -0.0982034 0.986508 -0.130992
vn -0.149655 0.982352 0.112194
vn 0.116525 0.986329 0.116525
vn 0.130867 0.982725 -0.130866
vn -0.066287 0.864616 -0.498042
vn -0.286769 0.819145 -0.496755
vn -0.431515 0.867026 -0.249118
vn -0.530723 0.845016 -0.0654314
vn -0.497992 0.864652 0.0661839
vn -0.496711 0.819173 0.286766
vn -0.249056 0.867056 0.431492
vn -0.0654554 0.845004 0.530738
vn 0.066287 0.864616 0.498042
vn 0.286793 0.819148 0.496735
vn 0.43148 0.867041 0.249128
vn 0.542214 0.835234 0.0915883
vn 0.530746 0.844999 -0.0654587
vn 0.43148 0.867041 -0.249128
vn 0.30549 0.83846 -0.451287
vn 0.0654624 0.845002 -0.530742
vn -0.113689 0.497611 -0.859917
vn -0.432535 0.501715 -0.74913
vn -0.749146 0.50171 -0.432513
vn -0.859917 0.497594 -0.11377
vn -0.859918 0.497611 0.113688
vn -0.74913 0.501736 0.432511
vn -0.432493 0.501737 0.74914
vn -0.113657 0.497622 0.859916
vn 0.113701 0.497614 0.859914
vn 0.432497 0.501723 0.749146
vn 0.749138 0.501725 0.432508
vn 0.833845 0.544481 0.0907879
vn 0.887735 0.451312 -0.0907954
vn 0.749138 0.501725 -0.432508
vn 0.384066 0.546798 -0.743979
vn 0.142971 0.449737 -0.881644
vn -0.10355 0.10355 -0.989219
vn -0.495691 0.130658 -0.858615
vn -0.858595 0.130735 -0.495704
vn -0.983097 0.129459 -0.129464
vn -0.983105 0.129429 0.129429
vn -0.858601 0.130674 0.49571
vn -0.49568 0.130614 0.858628
vn -0.129503 0.129506 0.983086
vn 0.12952 0.12952 0.983081
vn 0.495726 0.130667 0.858593
vn 0.858592 0.130651 0.495731
vn 0.983084 0.129512 0.12951
vn 0.975856 0.154443 -0.15444
vn 0.886972 0.104356 -0.449878
vn 0.495727 0.130667 -0.858593
vn 0.10355 0.156164 -0.982288
vn -0.156164 -0.103549 -0.982288
vn -0.447928 -0.156462 -0.880273
vn -0.841334 -0.111943 -0.528797
vn -0.975869 -0.154397 -0.154407
vn -0.983097 -0.129458 0.129464
vn -0.858595 -0.130734 0.495704
vn -0.495691 -0.130657 0.858615
vn -0.12952 -0.129519 0.983082
vn 0.12951 -0.12951 0.983084
vn 0.495737 -0.130658 0.858588
vn 0.858597 -0.130663 0.495719
vn 0.983081 -0.129522 0.129523
vn 0.983084 -0.129511 -0.12951
vn 0.83307 -0.104356 -0.543234
vn 0.538348 -0.156485 -0.828066
vn 0.12951 -0.12951 -0.983084
vn -0.113694 -0.497551 -0.859952
vn -0.490718 -0.453961 -0.743717
vn -0.750459 -0.533958 -0.389487
vn -0.887781 -0.451206 -0.0908784
vn -0.833878 -0.544418 0.0908708
vn -0.749177 -0.501649 0.43253
vn -0.432553 -0.501654 0.749161
vn -0.113694 -0.497551 0.859952
vn 0.113685 -0.49756 0.859947
vn 0.432532 -0.501666 0.749164
vn 0.749186 -0.501655 0.432508
vn 0.859951 -0.49755 0.113701
vn 0.859949 -0.497559 -0.113675
vn 0.749169 -0.501664 -0.432526
vn 0.398706 -0.453955 -0.796843
vn 0.129426 -0.541454 -0.830708
vn -0.0529375 -0.890767 -0.451366
vn -0.286781 -0.819128 -0.496776
vn -0.431495 -0.86704 -0.249107
vn -0.530722 -0.845016 -0.0654344
vn -0.542213 -0.835238 0.0915548
vn -0.431495 -0.86704 0.249107
vn -0.286781 -0.819128 0.496776
vn -0.0662839 -0.864629 0.49802
vn 0.0654654 -0.845002 0.530741
vn 0.249119 -0.867055 0.431458
vn 0.49676 -0.81913 0.286801
vn 0.498024 -0.864626 0.0662816
vn 0.530745 -0.845 -0.0654617
vn 0.431459 -0.867055 -0.249116
vn 0.286805 -0.819131 -0.496757
vn 0.0529421 -0.837163 -0.544385
vn -0.130764 -0.982752 -0.130763
vn -0.116435 -0.98635 0.116434
vn 0.149557 -0.982375 0.112123
vn 0.0981409 -0.986525 -0.130906
vn -0.999868 -0.0162353 0
vn 0 -0.0162353 0.999868
vn 0 -1 0
vn -0.996305 0.0858895 0
vn 0 0.0858911 0.996305
vn 0.996305 0.0858895 0
vn 0 0.0858911 0.996305
vn 0.999868 -0.0162353 0
vn 0 -0.0162353 0.999868
vn 0 -1 0
vn -0.999868 -0.0162353 0
vn 0 -0.0162355 -0.999868
vn 0 -1 0
vn -0.996305 0.0858895 0
vn 0 0.0858927 -0.996304
vn 0.996305 0.0858895 0
vn 0 0.0858927 -0.996304
vn 0.999868 -0.0162353 0
vn 0 -0.0162355 -0.999868
vn 0 -1 0
vn -0.972155 0.234337 0
vn 0 0.234335 0.972156
vn 0.972155 0.234337 0
vn 0 0.234335 0.972156
vn 0.972155 0.234337 0
vn 0 0.234337 -0.972155
vn -0.972155 0.234337 0
vn 0 0.234337 -0.972155
vn -0.928125 0.37227 0
vn 0 0.372267 0.928126
vn 0.928124 0.372272 0
vn 0 0.372267 0.928126
vn 0.928124 0.372272 0
vn 0 0.372271 -0.928124
vn -0.928124 0.37227 0
vn 0 0.37227 -0.928124
vn -0.986512 0.163686 0
vn 0 0.163684 0.986513
vn 0.986513 0.163685 0
vn 0 0.163684 0.986513
vn 0.986513 0.163685 0
vn 0 0.163681 -0.986513
vn -0.986512 0.163686 0
vn 0 0.163681 -0.986513
vn -0.965985 -0.258597 0
vn 0 -0.258597 0.965985
vn 0.965986 -0.258596 0
vn 0 -0.258597 0.965985
vn 0.965986 -0.258596 0
vn 0 -0.2586 -0.965985
vn -0.965985 -0.258597 0
vn 0 -0.2586 -0.965985
vn -0.978622 -0.205665 0
vn 0 -0.205662 0.978623
vn 0.978623 -0.205661 0
vn 0 -0.205662 0.978623
vn 0.978623 -0.205661 0
vn 0 -0.205659 -0.978624
vn -0.978622 -0.205665 0
vn 0 -0.205659 -0.978624
vn -0.999186 -0.0403447 0
vn 0 -0.0403451 0.999186
vn 0.999186 -0.0403451 0
vn 0 -0.0403451 0.999186
vn 0.999186 -0.0403451 0
vn 0 -0.0403451 -0.999186
vn -0.999186 -0.0403447 0
vn 0 -0.0403451 -0.999186
vn -0.999868 -0.0162353 0
vn 0 -0.0162351 0.999868
vn 0 -1 0
vn -0.996305 0.0858895 0
vn 0 0.0858863 0.996305
vn 0.996305 0.0858895 0
vn 0 0.0858863 0.996305
vn 0.999868 -0.0162353 0
vn 0 -0.0162351 0.999868
vn 0 -1 0
vn -0.999868 -0.0162353 0
vn 0 -0.0162353 -0.999868
vn 0 -1 0
vn -0.996305 0.0858895 0
vn 0 0.0858911 -0.996305
vn 0.996305 0.0858895 0
vn 0 0.0858911 -0.996305
vn 0.999868 -0.0162353 0
vn 0 -0.0162353 -0.999868
vn 0 -1 0
vn -0.972155 0.234337 0
vn 0 0.234334 0.972156
vn 0.972155 0.234337 0
vn 0 0.234334 0.972156
vn 0.972155 0.234337 0
vn 0 0.234335 -0.972156
vn -0.972155 0.234337 0
vn 0 0.234335 -0.972156
vn -0.928124 0.37227 0
vn 0 0.372272 0.928124
vn 0.928124 0.372272 0
vn 0 0.372272 0.928124
vn 0.928124 0.372272 0
vn 0 0.372267 -0.928126
vn -0.928124 0.37227 0
vn 0 0.372267 -0.928126
vn -0.986512 0.163686 0
vn 0 0.163685 0.986513
vn 0.986513 0.163685 0
vn 0 0.163685 0.986513
vn 0.986513 0.163685 0
vn 0 0.163684 -0.986513
vn -0.986512 0.163686 0
vn 0 0.163684 -0.986513
vn -0.965985 -0.258597 0
vn 0 -0.258596 0.965986
vn 0.965986 -0.258596 0
vn 0 -0.258596 0.965986
vn 0.965986 -0.258596 0
vn 0 -0.258597 -0.965985
vn -0.965985 -0.258597 0
vn 0 -0.258597 -0.965985
vn -0.978622 -0.205665 0
vn 0 -0.205661 0.978623
vn 0.978623 -0.205661 0
vn 0 -0.205661 0.978623
vn 0.978623 -0.205661 0
vn 0 -0.205662 -0.978623
vn -0.978622 -0.205665 0
vn 0 -0.205662 -0.978623
vn -0.999186 -0.0403447 0
vn 0 -0.0403451 0.999186
vn 0.999186 -0.0403451 0
vn 0 -0.0403451 0.999186
vn 0.999186 -0.0403451 0
vn 0 -0.0403451 -0.999186
vn -0.999186 -0.0403447 0
vn 0 -0.0403451 -0.999186
vn 0 -0.0162353 0.999868
vn -0.999868 -0.0162353 0
vn 0 -1 0
vn 0 0.0858911 0.996305
vn -0.996305 0.0858895 0
vn 0 0.0858911 0.996305
vn 0.996305 0.0858863 0
vn 0 -0.0162353 0.999868
vn 0.999868 -0.0162351 0
vn 0 -1 0
vn 0 -0.0162355 -0.999868
vn -0.999868 -0.0162353 0
vn 0 -1 0
vn 0 0.0858927 -0.996304
vn -0.996305 0.0858895 0
vn 0 0.0858927 -0.996304
vn 0.996305 0.0858863 0
vn 0 -0.0162355 -0.999868
vn 0.999868 -0.0162351 0
vn 0 -1 0
vn 0 0.234335 0.972156
vn -0.972156 0.234334 0
vn 0 0.234335 0.972156
vn 0.972156 0.234334 0
vn 0 0.234337 -0.972155
vn 0.972156 0.234334 0
vn 0 0.234337 -0.972155
vn -0.972156 0.234334 0
vn 0 0.372267 0.928126
vn -0.928124 0.372271 0
vn 0 0.372267 0.928126
vn 0.928124 0.37227 0
vn 0 0.372271 -0.928124
vn 0.928124 0.37227 0
vn 0 0.372271 -0.928124
vn -0.928124 0.372271 0
vn 0 0.163684 0.986513
vn -0.986513 0.163681 0
vn 0 0.163684 0.986513
vn 0.986513 0.163683 0
vn 0 0.163681 -0.986513
vn 0.986513 0.163683 0
vn 0 0.163681 -0.986513
vn -0.986513 0.163681 0
vn 0 -0.258597 0.965985
vn -0.965985 -0.2586 0
vn 0 -0.258597 0.965985
vn 0.965985 -0.258598 0
vn 0 -0.2586 -0.965985
vn 0.965985 -0.258598 0
vn 0 -0.2586 -0.965985
vn -0.965985 -0.2586 0
vn 0 -0.205662 0.978623
vn -0.978624 -0.205659 0
vn 0 -0.205662 0.978623
vn 0.978623 -0.205663 0
vn 0 -0.205659 -0.978624
vn 0.978623 -0.205663 0
vn 0 -0.205659 -0.978624
vn -0.978624 -0.205659 0
vn 0 -0.0403451 0.999186
vn -0.999186 -0.0403453 0
vn 0 -0.0403451 0.999186
vn 0.999186 -0.0403451 0
vn 0 -0.0403451 -0.999186
vn 0.999186 -0.0403451 0
vn 0 -0.0403451 -0.999186
vn -0.999186 -0.0403453 0
vn -0.999868 -0.0162353 0
vn 0 -0.0162351 0.999868
vn 0 -1 0
vn -0.996305 0.0858895 0
vn 0 0.0858863 0.996305
vn 0.996305 0.0858863 0
vn 0 0.0858863 0.996305
vn 0.999868 -0.0162351 0
vn 0 -0.0162351 0.999868
vn 0 -1 0
vn -0.999868 -0.0162353 0
vn 0 -0.0162353 -0.999868
vn 0 -1 0
vn -0.996305 0.0858895 0
vn 0 0.0858911 -0.996305
vn 0.996305 0.0858863 0
vn 0 0.0858911 -0.996305
vn 0.999868 -0.0162351 0
vn 0 -0.0162353 -0.999868
vn 0 -1 0
vn -0.972156 0.234334 0
vn 0 0.234334 0.972156
vn 0.972156 0.234334 0
vn 0 0.234334 0.972156
vn 0.972156 0.234334 0
vn 0 0.234335 -0.972156
vn -0.972156 0.234334 0
vn 0 0.234335 -0.972156
vn -0.928124 0.37227 0
vn 0 0.372272 0.928124
vn 0.928124 0.37227 0
vn 0 0.372272 0.928124
vn 0.928124 0.37227 0
vn 0 0.372267 -0.928126
vn -0.928124 0.37227 0
vn 0 0.372267 -0.928126
vn -0.986513 0.163681 0
vn 0 0.163685 0.986513
vn 0.986513 0.163683 0
vn 0 0.163685 0.986513
vn 0.986513 0.163683 0
vn 0 0.163684 -0.986513
vn -0.986513 0.163681 0
vn 0 0.163684 -0.986513
vn -0.965985 -0.2586 0
vn 0 -0.258596 0.965986
vn 0.965985 -0.258598 0
vn 0 -0.258596 0.965986
vn 0.965985 -0.258598 0
vn 0 -0.258597 -0.965985
vn -0.965985 -0.2586 0
vn 0 -0.258597 -0.965985
vn -0.978624 -0.205659 0
vn 0 -0.205661 0.978623
vn 0.978623 -0.205663 0
vn 0 -0.205661 0.978623
vn 0.978623 -0.205663 0
vn 0 -0.205662 -0.978623
vn -0.978624 -0.205659 0
vn 0 -0.205662 -0.978623
vn -0.999186 -0.0403453 0
vn 0 -0.0403451 0.999186
vn 0.999186 -0.0403451 0
vn 0 -0.0403451 0.999186
vn 0.999186 -0.0403451 0
vn 0 -0.0403451 -0.999186
vn -0.999186 -0.0403453 0
vn 0 -0.0403451 -0.999186
vn -0.672328 -0.256492 0.694396
vn -0.707107 0 0.707107
vn 0 1 0
vn 0.707107 0 0.707107
vn 0 1 0
vn 0.672328 -0.256492 0.694396
vn -0.672328 -0.256492 -0.694396
vn -0.707107 0 -0.707107
vn 0 1 0
vn 0.707107 0 -0.707107
vn 0 1 0
vn 0.672328 -0.256492 -0.694396
vn 0.421659 -0.754721 0.502594
vn -0.421659 -0.754721 0.502594
vn -0.421659 -0.754721 -0.502594
vn 0.421659 -0.754721 -0.502594
vn 0.312981 -0.853567 0.416493
vn -0.312981 -0.853567 0.416493
vn -0.312981 -0.853567 -0.416493
vn 0.312981 -0.853567 -0.416493
vn 0.592439 -0.472344 0.652615
vn -0.592439 -0.472344 0.652615
vn -0.592439 -0.472344 -0.652615
vn 0.592439 -0.472344 -0.652615
vn 0.628202 0.388858 0.673908
vn -0.628202 0.388858 0.673908
vn -0.628202 0.388858 -0.673908
vn 0.628202 0.388858 -0.673908
vn 0.628202 0.388858 0.673908
vn -0.628202 0.388858 0.673908
vn -0.628202 0.388858 -0.673908
vn 0.628202 0.388858 -0.673908
vn 0.692396 -0.166478 0.702049
vn -0.692396 -0.166478 0.702049
vn -0.692396 -0.166478 -0.702049
vn 0.692396 -0.166478 -0.702049
vn 0.541398 -0.584206 0.604643
vn -0.541398 -0.584206 0.604643
vn -0.541398 -0.584206 -0.604643
vn 0.541398 -0.584206 -0.604643
vn 0.194593 -0.950627 0.241746
vn -0.194593 -0.950627 0.241746
vn -0.194593 -0.950627 -0.241746
vn 0.194593 -0.950627 -0.241746
vn 0 -1 0
vn 0 0.236299 -0.97168
vn -0.926105 0.377267 0
vn 0 -1 0
vn 0 0.236299 -0.97168
vn 0.926105 0.377267 0
vn 0 -1 0
vn 0 0.236299 0.97168
vn 0.926105 0.377267 0
vn 0 -1 0
vn 0 0.236299 0.97168
vn -0.926105 0.377267 0
vn 0 1 0
vn 0 0.236299 -0.97168
vn 0.926105 0.377267 0
vn 0 1 0
vn 0 0.236299 -0.97168
vn -0.926105 0.377267 0
vn 0 1 0
vn 0 0.236299 0.97168
vn -0.926105 0.377267 0
vn 0 1 0
vn 0 0.236299 0.97168
vn 0.926105 0.377267 0
usemtl table01_D
g meh
s 1
f 1/1/1 3/3/3 4/2/4
f 1/4/1 8/6/8 2/5/2
f 1/7/1 20/9/20 5/8/5
f 2/10/2 3/3/3 1/1/1
f 2/5/2 8/6/8 9/11/9
f 2/12/2 12/14/12 3/13/3
f 3/13/3 12/14/12 13/15/13
f 3/16/3 17/18/17 4/17/4
f 4/19/4 20/9/20 1/7/1
f 5/8/5 6/20/6 1/7/1
f 5/8/5 21/21/21 6/20/6
f 6/22/6 7/23/7 1/4/1
f 6/20/6 21/21/21 22/24/22
f 6/22/6 23/25/23 7/23/7
f 7/23/7 8/6/8 1/4/1
f 7/23/7 23/25/23 8/6/8
f 8/6/8 23/25/23 24/26/24
f 8/6/8 25/27/25 9/11/9
f 9/11/9 10/28/10 2/5/2
f 9/11/9 25/27/25 10/28/10
f 10/28/10 11/29/11 2/5/2
f 10/28/10 25/27/25 26/30/26
f 10/28/10 27/31/27 11/29/11
f 11/32/11 12/14/12 2/12/2
f 11/32/11 27/33/27 12/14/12
f 12/14/12 27/33/27 28/34/28
f 12/14/12 29/35/29 13/15/13
f 13/15/13 14/36/14 3/13/3
f 13/15/13 29/35/29 14/36/14
f 14/37/14 15/38/15 3/16/3
f 14/36/14 29/35/29 30/39/30
f 14/37/14 31/40/31 15/38/15
f 15/38/15 16/41/16 3/16/3
f 15/38/15 31/40/31 16/41/16
f 16/41/16 17/18/17 3/16/3
f 16/41/16 31/40/31 32/42/32
f 16/41/16 32/42/32 17/18/17
f 17/18/17 18/43/18 4/17/4
f 17/18/17 32/42/32 33/44/33
f 17/18/17 34/45/34 18/43/18
f 18/43/18 19/46/19 4/17/4
f 18/43/18 34/45/34 19/46/19
f 19/47/19 20/9/20 4/19/4
f 19/46/19 34/45/34 35/48/35
f 19/47/19 35/49/35 20/9/20
f 20/9/20 21/21/21 5/8/5
f 20/9/20 35/49/35 36/50/36
f 21/21/21 38/51/38 22/24/22
f 21/21/21 52/53/52 37/52/37
f 22/54/22 23/25/23 6/22/6
f 22/54/22 38/55/38 23/25/23
f 23/25/23 38/55/38 39/56/39
f 23/25/23 40/57/40 24/26/24
f 24/26/24 25/27/25 8/6/8
f 24/26/24 40/57/40 25/27/25
f 25/27/25 40/57/40 41/58/41
f 25/27/25 42/59/42 26/30/26
f 26/30/26 27/31/27 10/28/10
f 26/30/26 42/59/42 27/31/27
f 27/31/27 42/59/42 43/60/43
f 27/33/27 44/61/44 28/34/28
f 28/34/28 29/35/29 12/14/12
f 28/34/28 44/61/44 29/35/29
f 29/35/29 44/61/44 45/62/45
f 29/35/29 46/63/46 30/39/30
f 30/64/30 31/40/31 14/37/14
f 30/64/30 46/65/46 31/40/31
f 31/40/31 46/65/46 47/66/47
f 31/40/31 48/67/48 32/42/32
f 32/42/32 48/67/48 33/44/33
f 33/44/33 34/45/34 17/18/17
f 33/44/33 48/67/48 49/68/49
f 33/44/33 49/68/49 34/45/34
f 34/45/34 49/68/49 50/69/50
f 34/45/34 51/70/51 35/48/35
f 35/49/35 51/71/51 36/50/36
f 36/50/36 21/21/21 20/9/20
f 36/50/36 51/71/51 52/53/52
f 36/50/36 52/53/52 21/21/21
f 37/52/37 38/51/38 21/21/21
f 37/52/37 53/72/53 38/51/38
f 37/52/37 68/73/68 53/72/53
f 38/51/38 53/72/53 54/74/54
f 38/55/38 55/75/55 39/56/39
f 39/56/39 40/57/40 23/25/23
f 39/56/39 55/75/55 40/57/40
f 40/57/40 55/75/55 56/76/56
f 40/57/40 57/77/57 41/58/41
f 41/58/41 42/59/42 25/27/25
f 41/58/41 57/77/57 42/59/42
f 42/59/42 57/77/57 58/78/58
f 42/59/42 59/79/59 43/60/43
f 43/80/43 44/61/44 27/33/27
f 43/80/43 59/81/59 44/61/44
f 44/61/44 59/81/59 60/82/60
f 44/61/44 61/83/61 45/62/45
f 45/62/45 46/63/46 29/35/29
f 45/62/45 61/83/61 46/63/46
f 46/63/46 61/83/61 62/84/62
f 46/65/46 63/85/63 47/66/47
f 47/66/47 48/67/48 31/40/31
f 47/66/47 63/85/63 48/67/48
f 48/67/48 63/85/63 64/86/64
f 48/67/48 65/87/65 49/68/49
f 49/68/49 65/87/65 50/69/50
f 50/69/50 51/70/51 34/45/34
f 50/69/50 65/87/65 66/88/66
f 50/69/50 66/88/66 51/70/51
f 51/70/51 66/88/66 67/89/67
f 51/71/51 68/73/68 52/53/52
f 52/53/52 68/73/68 37/52/37
f 53/72/53 69/90/69 54/74/54
f 54/91/54 55/75/55 38/55/38
f 54/74/54 69/90/69 70/92/70
f 54/91/54 70/93/70 55/75/55
f 55/75/55 70/93/70 71/94/71
f 55/75/55 71/94/71 56/76/56
f 56/76/56 57/77/57 40/57/40
f 56/76/56 71/94/71 72/95/72
f 56/76/56 72/95/72 57/77/57
f 57/77/57 72/95/72 73/96/73
f 57/77/57 74/97/74 58/78/58
f 58/78/58 59/79/59 42/59/42
f 58/78/58 74/97/74 59/79/59
f 59/79/59 74/97/74 75/98/75
f 59/81/59 76/99/76 60/82/60
f 60/82/60 61/83/61 44/61/44
f 60/82/60 76/99/76 61/83/61
f 61/83/61 76/99/76 77/100/77
f 61/83/61 78/101/78 62/84/62
f 62/102/62 63/85/63 46/65/46
f 62/102/62 78/103/78 63/85/63
f 63/85/63 78/103/78 79/104/79
f 63/85/63 80/105/80 64/86/64
f 64/86/64 65/87/65 48/67/48
f 64/86/64 80/105/80 65/87/65
f 65/87/65 80/105/80 81/106/81
f 65/87/65 82/107/82 66/88/66
f 66/88/66 82/107/82 67/89/67
f 67/108/67 68/73/68 51/71/51
f 67/89/67 82/107/82 83/109/83
f 67/108/67 83/110/83 68/73/68
f 68/73/68 69/90/69 53/72/53
f 68/73/68 83/110/83 84/111/84
f 69/90/69 86/112/86 70/92/70
f 69/90/69 100/114/100 85/113/85
f 70/93/70 86/115/86 71/94/71
f 71/94/71 86/115/86 87/116/87
f 71/94/71 88/117/88 72/95/72
f 72/95/72 88/117/88 73/96/73
f 73/96/73 74/97/74 57/77/57
f 73/96/73 88/117/88 89/118/89
f 73/96/73 89/118/89 74/97/74
f 74/97/74 89/118/89 90/119/90
f 74/97/74 91/120/91 75/98/75
f 75/121/75 76/99/76 59/81/59
f 75/121/75 91/122/91 76/99/76
f 76/99/76 91/122/91 92/123/92
f 76/99/76 93/124/93 77/100/77
f 77/100/77 78/101/78 61/83/61
f 77/100/77 93/124/93 78/101/78
f 78/101/78 93/124/93 94/125/94
f 78/103/78 95/126/95 79/104/79
f 79/104/79 80/105/80 63/85/63
f 79/104/79 95/126/95 80/105/80
f 80/105/80 95/126/95 96/127/96
f 80/105/80 97/128/97 81/106/81
f 81/106/81 82/107/82 65/87/65
f 81/106/81 97/128/97 82/107/82
f 82/107/82 97/128/97 98/129/98
f 82/107/82 99/130/99 83/109/83
f 83/110/83 99/131/99 84/111/84
f 84/111/84 69/90/69 68/73/68
f 84/111/84 99/131/99 100/114/100
f 84/111/84 100/114/100 69/90/69
f 85/113/85 86/112/86 69/90/69
f 85/113/85 101/132/101 86/112/86
f 85/113/85 104/133/104 101/132/101
f 86/115/86 101/134/101 87/116/87
f 87/116/87 88/117/88 71/94/71
f 87/116/87 101/134/101 88/117/88
f 88/117/88 102/135/102 89/118/89
f 89/118/89 102/135/102 90/119/90
f 90/119/90 91/120/91 74/97/74
f 90/119/90 102/135/102 91/120/91
f 91/122/91 102/136/102 92/123/92
f 92/123/92 93/124/93 76/99/76
f 92/123/92 102/136/102 93/124/93
f 93/124/93 102/136/102 103/137/103
f 93/124/93 103/137/103 94/125/94
f 94/138/94 95/126/95 78/103/78
f 94/138/94 103/139/103 95/126/95
f 95/126/95 103/139/103 96/127/96
f 96/127/96 97/128/97 80/105/80
f 96/127/96 103/139/103 97/128/97
f 97/128/97 103/139/103 104/140/104
f 97/128/97 104/140/104 98/129/98
f 98/129/98 99/130/99 82/107/82
f 98/129/98 104/140/104 99/130/99
f 99/131/99 104/133/104 100/114/100
f 100/114/100 104/133/104 85/113/85
f 101/134/101 102/135/102 88/117/88
f 101/141/101 104/143/104 102/142/102
f 102/142/102 104/143/104 103/144/103
f 105/145/107 109/147/117 108/146/114
f 108/146/114 109/147/117 112/148/124
f 137/145/175 141/147/185 140/146/182
f 140/146/182 141/147/185 144/148/192
f 169/145/243 173/147/253 172/146/250
f 172/146/250 173/147/253 176/148/260
f 201/145/311 205/147/321 204/146/318
f 204/146/318 205/147/321 208/148/328
f 273/149/423 278/151/438 276/150/432
f 275/152/429 280/154/444 274/153/426
f 277/155/435 274/153/426 280/154/444
f 279/156/441 276/150/432 278/151/438
s 2
f 105/157/106 108/159/113 106/158/109
f 106/158/109 108/159/113 107/160/111
f 107/160/111 114/161/128 106/158/109
f 109/159/116 111/158/121 112/157/123
f 110/160/119 111/158/121 109/159/116
f 110/160/119 116/161/132 111/158/121
f 113/162/126 106/158/109 114/161/128
f 114/161/128 117/163/134 113/162/126
f 115/162/130 111/158/121 116/161/132
f 116/161/132 119/163/138 115/162/130
f 117/163/134 114/161/128 118/164/136
f 118/164/136 122/165/144 117/163/134
f 119/163/138 116/161/132 120/164/140
f 120/164/140 124/165/148 119/163/138
f 121/166/142 117/163/134 122/165/144
f 122/165/144 125/167/150 121/166/142
f 123/166/146 119/163/138 124/165/148
f 124/165/148 127/167/154 123/166/146
f 125/167/150 122/165/144 126/168/152
f 126/168/152 130/169/160 125/167/150
f 127/167/154 124/165/148 128/168/156
f 128/168/156 132/169/164 127/167/154
f 129/170/158 125/167/150 130/169/160
f 130/169/160 133/171/166 129/170/158
f 131/170/162 127/167/154 132/169/164
f 132/169/164 135/171/170 131/170/162
f 133/171/166 130/169/160 134/172/168
f 135/171/170 132/169/164 136/172/172
f 137/157/174 140/159/181 138/158/177
f 138/158/177 140/159/181 139/160/179
f 139/160/179 146/161/196 138/158/177
f 141/159/184 143/158/189 144/157/191
f 142/160/187 143/158/189 141/159/184
f 142/160/187 148/161/200 143/158/189
f 145/162/194 138/158/177 146/161/196
f 146/161/196 149/163/202 145/162/194
f 147/162/198 143/158/189 148/161/200
f 148/161/200 151/163/206 147/162/198
f 149/163/202 146/161/196 150/164/204
f 150/164/204 154/165/212 149/163/202
f 151/163/206 148/161/200 152/164/208
f 152/164/208 156/165/216 151/163/206
f 153/166/210 149/163/202 154/165/212
f 154/165/212 157/167/218 153/166/210
f 155/166/214 151/163/206 156/165/216
f 156/165/216 159/167/222 155/166/214
f 157/167/218 154/165/212 158/168/220
f 158/168/220 162/169/228 157/167/218
f 159/167/222 156/165/216 160/168/224
f 160/168/224 164/169/232 159/167/222
f 161/170/226 157/167/218 162/169/228
f 162/169/228 165/171/234 161/170/226
f 163/170/230 159/167/222 164/169/232
f 164/169/232 167/171/238 163/170/230
f 165/171/234 162/169/228 166/172/236
f 167/171/238 164/169/232 168/172/240
f 170/160/245 173/157/252 169/159/242
f 170/160/245 180/162/268 174/158/255
f 172/157/249 175/160/257 171/158/247
f 174/158/255 173/157/252 170/160/245
f 175/160/257 178/162/264 171/158/247
f 176/159/259 175/160/257 172/157/249
f 177/161/262 180/162/268 170/160/245
f 177/161/262 181/164/270 180/162/268
f 178/162/264 175/160/257 179/161/266
f 179/161/266 183/164/274 178/162/264
f 181/164/270 188/166/284 184/163/276
f 182/163/272 178/162/264 183/164/274
f 183/164/274 186/166/280 182/163/272
f 184/163/276 180/162/268 181/164/270
f 185/165/278 188/166/284 181/164/270
f 185/165/278 189/168/286 188/166/284
f 186/166/280 183/164/274 187/165/282
f 187/165/282 191/168/290 186/166/280
f 189/168/286 196/170/300 192/167/292
f 190/167/288 186/166/280 191/168/290
f 191/168/290 194/170/296 190/167/288
f 192/167/292 188/166/284 189/168/286
f 193/169/294 196/170/300 189/168/286
f 193/169/294 197/172/302 196/170/300
f 194/170/296 191/168/290 195/169/298
f 195/169/298 199/172/306 194/170/296
f 198/171/304 194/170/296 199/172/306
f 200/171/308 196/170/300 197/172/302
f 201/157/310 204/159/317 202/158/313
f 202/158/313 204/159/317 203/160/315
f 203/160/315 210/161/332 202/158/313
f 205/159/320 207/158/325 208/157/327
f 206/160/323 207/158/325 205/159/320
f 206/160/323 212/161/336 207/158/325
f 209/162/330 202/158/313 210/161/332
f 210/161/332 213/163/338 209/162/330
f 211/162/334 207/158/325 212/161/336
f 212/161/336 215/163/342 211/162/334
f 213/163/338 210/161/332 214/164/340
f 214/164/340 218/165/348 213/163/338
f 215/163/342 212/161/336 216/164/344
f 216/164/344 220/165/352 215/163/342
f 217/166/346 213/163/338 218/165/348
f 218/165/348 221/167/354 217/166/346
f 219/166/350 215/163/342 220/165/352
f 220/165/352 223/167/358 219/166/350
f 221/167/354 218/165/348 222/168/356
f 222/168/356 226/169/364 221/167/354
f 223/167/358 220/165/352 224/168/360
f 224/168/360 228/169/368 223/167/358
f 225/170/362 221/167/354 226/169/364
f 226/169/364 229/171/370 225/170/362
f 227/170/366 223/167/358 228/169/368
f 228/169/368 231/171/374 227/170/366
f 229/171/370 226/169/364 230/172/372
f 231/171/374 228/169/368 232/172/376
f 274/173/425 278/175/437 273/174/422
f 276/176/431 280/178/443 275/177/428
f 278/175/437 274/173/425 277/179/434
f 280/178/443 276/176/431 279/180/440
s 3
f 106/160/108 109/157/115 105/159/105
f 106/160/108 116/162/131 110/158/118
f 108/157/112 111/160/120 107/158/110
f 110/158/118 109/157/115 106/160/108
f 111/160/120 114/162/127 107/158/110
f 112/159/122 111/160/120 108/157/112
f 113/161/125 116/162/131 106/160/108
f 113/161/125 117/164/133 116/162/131
f 114/162/127 111/160/120 115/161/129
f 115/161/129 119/164/137 114/162/127
f 117/164/133 124/166/147 120/163/139
f 118/163/135 114/162/127 119/164/137
f 119/164/137 122/166/143 118/163/135
f 120/163/139 116/162/131 117/164/133
f 121/165/141 124/166/147 117/164/133
f 121/165/141 125/168/149 124/166/147
f 122/166/143 119/164/137 123/165/145
f 123/165/145 127/168/153 122/166/143
f 125/168/149 132/170/163 128/167/155
f 126/167/151 122/166/143 127/168/153
f 127/168/153 130/170/159 126/167/151
f 128/167/155 124/166/147 125/168/149
f 129/169/157 132/170/163 125/168/149
f 129/169/157 133/172/165 132/170/163
f 130/170/159 127/168/153 131/169/161
f 131/169/161 135/172/169 130/170/159
f 134/171/167 130/170/159 135/172/169
f 136/171/171 132/170/163 133/172/165
f 138/160/176 141/157/183 137/159/173
f 138/160/176 148/162/199 142/158/186
f 140/157/180 143/160/188 139/158/178
f 142/158/186 141/157/183 138/160/176
f 143/160/188 146/162/195 139/158/178
f 144/159/190 143/160/188 140/157/180
f 145/161/193 148/162/199 138/160/176
f 145/161/193 149/164/201 148/162/199
f 146/162/195 143/160/188 147/161/197
f 147/161/197 151/164/205 146/162/195
f 149/164/201 156/166/215 152/163/207
f 150/163/203 146/162/195 151/164/205
f 151/164/205 154/166/211 150/163/203
f 152/163/207 148/162/199 149/164/201
f 153/165/209 156/166/215 149/164/201
f 153/165/209 157/168/217 156/166/215
f 154/166/211 151/164/205 155/165/213
f 155/165/213 159/168/221 154/166/211
f 157/168/217 164/170/231 160/167/223
f 158/167/219 154/166/211 159/168/221
f 159/168/221 162/170/227 158/167/219
f 160/167/223 156/166/215 157/168/217
f 161/169/225 164/170/231 157/168/217
f 161/169/225 165/172/233 164/170/231
f 162/170/227 159/168/221 163/169/229
f 163/169/229 167/172/237 162/170/227
f 166/171/235 162/170/227 167/172/237
f 168/171/239 164/170/231 165/172/233
f 169/157/241 172/159/248 170/158/244
f 170/158/244 172/159/248 171/160/246
f 171/160/246 178/161/263 170/158/244
f 173/159/251 175/158/256 176/157/258
f 174/160/254 175/158/256 173/159/251
f 174/160/254 180/161/267 175/158/256
f 177/162/261 170/158/244 178/161/263
f 178/161/263 181/163/269 177/162/261
f 179/162/265 175/158/256 180/161/267
f 180/161/267 183/163/273 179/162/265
f 181/163/269 178/161/263 182/164/271
f 182/164/271 186/165/279 181/163/269
f 183/163/273 180/161/267 184/164/275
f 184/164/275 188/165/283 183/163/273
f 185/166/277 181/163/269 186/165/279
f 186/165/279 189/167/285 185/166/277
f 187/166/281 183/163/273 188/165/283
f 188/165/283 191/167/289 187/166/281
f 189/167/285 186/165/279 190/168/287
f 190/168/287 194/169/295 189/167/285
f 191/167/289 188/165/283 192/168/291
f 192/168/291 196/169/299 191/167/289
f 193/170/293 189/167/285 194/169/295
f 194/169/295 197/171/301 193/170/293
f 195/170/297 191/167/289 196/169/299
f 196/169/299 199/171/305 195/170/297
f 197/171/301 194/169/295 198/172/303
f 199/171/305 196/169/299 200/172/307
f 202/160/312 205/157/319 201/159/309
f 202/160/312 212/162/335 206/158/322
f 204/157/316 207/160/324 203/158/314
f 206/158/322 205/157/319 202/160/312
f 207/160/324 210/162/331 203/158/314
f 208/159/326 207/160/324 204/157/316
f 209/161/329 212/162/335 202/160/312
f 209/161/329 213/164/337 212/162/335
f 210/162/331 207/160/324 211/161/333
f 211/161/333 215/164/341 210/162/331
f 213/164/337 220/166/351 216/163/343
f 214/163/339 210/162/331 215/164/341
f 215/164/341 218/166/347 214/163/339
f 216/163/343 212/162/335 213/164/337
f 217/165/345 220/166/351 213/164/337
f 217/165/345 221/168/353 220/166/351
f 218/166/347 215/164/341 219/165/349
f 219/165/349 223/168/357 218/166/347
f 221/168/353 228/170/367 224/167/359
f 222/167/355 218/166/347 223/168/357
f 223/168/357 226/170/363 222/167/355
f 224/167/359 220/166/351 221/168/353
f 225/169/361 228/170/367 221/168/353
f 225/169/361 229/172/369 228/170/367
f 226/170/363 223/168/357 227/169/365
f 227/169/365 231/172/373 226/170/363
f 230/171/371 226/170/363 231/172/373
f 232/171/375 228/170/367 229/172/369
f 234/181/379 280/183/442 238/182/385
f 235/184/381 278/186/436 234/185/379
f 238/187/385 280/185/442 239/186/387
f 239/182/387 278/188/436 235/181/381
f 277/189/433 234/185/379 278/186/436
f 277/190/433 280/183/442 234/181/379
f 278/188/436 239/182/387 279/191/439
f 279/192/439 239/186/387 280/185/442
s 4
f 233/193/377 236/195/382 234/194/378
f 233/193/377 242/196/390 236/195/382
f 234/194/378 236/195/382 235/197/380
f 234/198/378 237/200/383 233/199/377
f 236/201/382 239/203/386 235/202/380
f 236/201/382 244/205/392 240/204/388
f 237/206/383 239/208/386 240/207/388
f 237/200/383 242/209/390 233/199/377
f 238/210/384 237/200/383 234/198/378
f 238/211/384 239/208/386 237/206/383
f 240/204/388 239/203/386 236/201/382
f 240/207/388 244/212/392 237/206/383
f 241/213/389 236/195/382 242/196/390
f 241/214/389 244/205/392 236/201/382
f 241/214/389 245/215/393 244/205/392
f 242/209/390 237/200/383 243/216/391
f 242/196/390 245/217/393 241/213/389
f 243/218/391 237/206/383 244/212/392
f 243/216/391 247/219/395 242/209/390
f 244/212/392 247/220/395 243/218/391
f 245/217/393 242/196/390 246/221/394
f 245/215/393 252/223/400 248/222/396
f 246/224/394 242/209/390 247/219/395
f 246/221/394 250/225/398 245/217/393
f 247/220/395 244/212/392 248/226/396
f 247/219/395 250/227/398 246/224/394
f 248/222/396 244/205/392 245/215/393
f 248/226/396 252/228/400 247/220/395
f 249/229/397 245/217/393 250/225/398
f 249/230/397 252/223/400 245/215/393
f 249/230/397 253/231/401 252/223/400
f 250/227/398 247/219/395 251/232/399
f 250/225/398 253/233/401 249/229/397
f 251/234/399 247/220/395 252/228/400
f 251/232/399 255/235/403 250/227/398
f 252/228/400 255/236/403 251/234/399
f 253/233/401 250/225/398 254/237/402
f 253/231/401 260/239/408 256/238/404
f 254/240/402 250/227/398 255/235/403
f 254/237/402 258/241/406 253/233/401
f 255/236/403 252/228/400 256/242/404
f 255/235/403 258/243/406 254/240/402
f 256/238/404 252/223/400 253/231/401
f 256/242/404 260/244/408 255/236/403
f 257/245/405 253/233/401 258/241/406
f 257/246/405 260/239/408 253/231/401
f 257/246/405 261/247/409 260/239/408
f 258/243/406 255/235/403 259/248/407
f 258/241/406 261/249/409 257/245/405
f 259/250/407 255/236/403 260/244/408
f 259/248/407 263/251/411 258/243/406
f 260/244/408 263/252/411 259/250/407
f 261/249/409 258/241/406 262/253/410
f 261/247/409 268/255/416 264/254/412
f 262/256/410 258/243/406 263/251/411
f 262/253/410 266/257/414 261/249/409
f 263/252/411 260/244/408 264/258/412
f 263/251/411 266/259/414 262/256/410
f 264/254/412 260/239/408 261/247/409
f 264/258/412 268/260/416 263/252/411
f 265/261/413 261/249/409 266/257/414
f 265/262/413 268/255/416 261/247/409
f 265/262/413 269/263/417 268/255/416
f 266/259/414 263/251/411 267/264/415
f 266/257/414 269/265/417 265/261/413
f 267/266/415 263/252/411 268/260/416
f 267/264/415 271/267/419 266/259/414
f 268/260/416 271/268/419 267/266/415
f 269/265/417 266/257/414 270/269/418
f 269/270/417 276/191/430 272/271/420
f 270/272/418 266/259/414 271/267/419
f 270/273/418 274/275/424 269/274/417
f 271/268/419 268/260/416 272/276/420
f 271/271/419 274/277/424 270/270/418
f 272/278/420 268/255/416 269/263/417
f 272/279/420 276/274/430 271/275/419
f 273/280/421 269/274/417 274/275/424
f 273/281/421 276/191/430 269/270/417
f 274/277/424 271/271/419 275/282/427
f 275/283/427 271/275/419 276/274/430
