# Wavefront OBJ
# Created by fragMOTION
# http://www.fragmosoft.com

mtllib table05.mtl
# 192 vertices
v 35.6173 0.348409 12.6906
v 35.316 32.2377 15.2256
v 35.316 32.2377 12.4583
v 35.6173 0.348409 14.9932
v 35.7076 32.2377 15.6369
v 35.9432 0.348409 15.3355
v 38.5144 32.2377 15.6369
v 38.2788 0.348409 15.3355
v 38.906 32.2377 15.2256
v 38.6046 0.348409 14.9932
v 38.906 32.2377 12.4583
v 38.6046 0.348409 12.6906
v 38.4305 0 14.8591
v 38.4305 0 12.8247
v 38.2788 0.348409 12.3483
v 38.1427 0 12.5223
v 35.9432 0.348409 12.3483
v 36.0793 0 12.5223
v 35.7914 0 12.8247
v 35.7914 0 14.8591
v 36.0793 0 15.1614
v 38.1427 0 15.1614
v 38.5144 32.2377 12.0469
v 35.7076 32.2377 12.0469
v 39.4102 34.9328 -17.4961
v -39.4102 34.9328 -17.4961
v -40.2812 34.9328 -16.9932
v 40.2812 34.9328 -16.9932
v -40.2812 34.9328 17.0001
v 40.9875 34.4026 -17.6698
v 40.1011 34.4026 -18.1926
v -40.1011 34.4026 -18.1926
v -40.9875 34.4026 -17.6698
v -40.784 34.9328 -16.1222
v -41.4992 34.4026 -16.7641
v -40.784 34.9328 16.1292
v -41.4992 34.4026 16.7641
v -40.9875 34.4026 17.6698
v -39.4102 34.9328 17.503
v -40.1011 34.4026 18.1926
v 39.4102 34.9328 17.503
v 40.1011 34.4026 18.1926
v 40.2812 34.9328 17.0001
v 40.784 34.9328 16.1292
v 40.784 34.9328 -16.1222
v 40.9875 34.4026 17.6698
v 41.4992 34.4026 16.7641
v 41.4992 34.4026 -16.7641
v -39.4102 31.9922 -17.4961
v 39.4102 31.9922 -17.4961
v 40.2812 31.9922 -16.9932
v 40.784 31.9922 -16.1222
v 40.2812 31.9922 17.0001
v 40.784 31.9922 16.1292
v -40.1011 32.5674 -18.1926
v 40.1011 32.5674 -18.1926
v 40.9875 32.5674 -17.6698
v 41.4992 32.5674 -16.7641
v 41.4992 32.5674 16.7641
v 40.9875 32.5674 17.6698
v 39.4102 31.9922 17.503
v 40.1011 32.5674 18.1926
v -40.2812 31.9922 -16.9932
v -40.2812 31.9922 17.0001
v -39.4102 31.9922 17.503
v -40.1011 32.5674 18.1926
v -40.9875 32.5674 17.6698
v -40.784 31.9922 16.1292
v -41.4992 32.5674 16.7641
v -40.784 31.9922 -16.1222
v -41.4992 32.5674 -16.7641
v -40.9875 32.5674 -17.6698
v -38.5433 0.348409 -14.9702
v -38.8446 32.2377 -12.4352
v -38.8446 32.2377 -15.2025
v -38.5433 0.348409 -12.6675
v -38.453 32.2377 -12.0238
v -38.2174 0.348409 -12.3252
v -35.6462 32.2377 -12.0238
v -35.8818 0.348409 -12.3252
v -35.2546 32.2377 -12.4352
v -35.556 0.348409 -12.6675
v -35.2546 32.2377 -15.2025
v -35.556 0.348409 -14.9702
v -35.7301 0 -12.8017
v -35.7301 0 -14.8361
v -35.8818 0.348409 -15.3125
v -36.0179 0 -15.1384
v -38.2174 0.348409 -15.3125
v -38.0813 0 -15.1384
v -38.3692 0 -14.8361
v -38.3692 0 -12.8017
v -38.0813 0 -12.4993
v -36.0179 0 -12.4993
v -35.6462 32.2377 -15.6138
v -38.453 32.2377 -15.6138
v 38.1781 26.0163 15.1356
v 38.1781 32.248 15.1356
v 38.1781 32.248 -14.9878
v 38.1781 26.0163 -14.9878
v -38.1781 26.0163 15.1356
v -38.1781 32.248 15.1356
v -38.1781 32.248 -14.9878
v -38.1781 26.0163 -14.9878
v 35.9188 26.0163 -12.7286
v 35.9188 26.0163 12.8763
v -35.9188 26.0163 12.8763
v -35.9188 26.0163 -12.7286
v 35.9188 32.248 12.8763
v 35.9188 32.248 -12.7286
v -35.9188 32.248 -12.7286
v -35.9188 32.248 12.8763
v 37.8528 25.6463 -14.2024
v 37.8528 25.6463 14.3501
v 36.2442 25.6463 12.7416
v 36.2442 25.6463 -12.5938
v 37.3927 25.6463 14.8102
v -37.3927 25.6463 14.8102
v -35.7841 25.6463 13.2016
v 35.7841 25.6463 13.2016
v -37.8528 25.6463 14.3501
v -37.8528 25.6463 -14.2024
v -36.2442 25.6463 -12.5938
v -36.2442 25.6463 12.7416
v -37.3927 25.6463 -14.6625
v 37.3927 25.6463 -14.6625
v 35.7841 25.6463 -13.0539
v -35.7841 25.6463 -13.0539
v -38.5433 0.348409 12.6906
v -38.8446 32.2377 15.2256
v -38.8446 32.2377 12.4583
v -38.5433 0.348409 14.9932
v -38.453 32.2377 15.6369
v -38.2174 0.348409 15.3355
v -35.6462 32.2377 15.6369
v -35.8818 0.348409 15.3355
v -35.2546 32.2377 15.2256
v -35.556 0.348409 14.9932
v -35.2546 32.2377 12.4583
v -35.556 0.348409 12.6906
v -35.7301 0 14.8591
v -35.7301 0 12.8247
v -35.8818 0.348409 12.3483
v -36.0179 0 12.5223
v -38.2174 0.348409 12.3483
v -38.0813 0 12.5223
v -38.3692 0 12.8247
v -38.3692 0 14.8591
v -38.0813 0 15.1614
v -36.0179 0 15.1614
v -35.6462 32.2377 12.0469
v -38.453 32.2377 12.0469
v -37.5512 0.947193 12.5848
v -37.5512 5.06903 -12.4609
v -37.5512 0.947193 -12.4609
v -37.5512 5.06903 12.5848
v -36.523 5.06903 12.5848
v -36.523 5.06903 -12.4609
v -36.523 0.947193 12.5848
v -36.523 0.947193 -12.4609
v 37.5564 5.06903 12.5848
v 36.5786 5.06903 -12.4609
v 36.5786 5.06903 12.5848
v 37.5564 5.06903 -12.4609
v 36.5786 0.947193 -12.4609
v 36.5786 0.947193 12.5848
v 37.5564 0.947193 -12.4609
v 37.5564 0.947193 12.5848
v 35.6173 0.348409 -14.9702
v 35.316 32.2377 -12.4352
v 35.316 32.2377 -15.2025
v 35.6173 0.348409 -12.6675
v 35.7076 32.2377 -12.0238
v 35.9432 0.348409 -12.3252
v 38.5144 32.2377 -12.0238
v 38.2788 0.348409 -12.3252
v 38.906 32.2377 -12.4352
v 38.6046 0.348409 -12.6675
v 38.906 32.2377 -15.2025
v 38.6046 0.348409 -14.9702
v 38.4305 0 -12.8017
v 38.4305 0 -14.8361
v 38.2788 0.348409 -15.3125
v 38.1427 0 -15.1384
v 35.9432 0.348409 -15.3125
v 36.0793 0 -15.1384
v 35.7914 0 -14.8361
v 35.7914 0 -12.8017
v 36.0793 0 -12.4993
v 38.1427 0 -12.4993
v 38.5144 32.2377 -15.6138
v 35.7076 32.2377 -15.6138
# 170 texture vertices
vt 0.863659 0.841543
vt 0.818259 0.841485
vt 0.817512 0.899772
vt 0.811804 0.84757
vt 0.811199 0.893538
vt 0.862912 0.89983
vt 0.869368 0.893744
vt 0.869973 0.847775
vt 0.538906 0.0480297
vt 0.539901 0.957425
vt 0.548998 0.0400237
vt 0.532972 0.0382066
vt 0.523051 0.0321644
vt 0.550021 0.965436
vt 0.533983 0.967386
vt 0.543004 0.977095
vt 0.136064 0.957158
vt 0.523835 0.97304
vt 0.542376 0.0282766
vt 0.530479 0.0218208
vt 0.141692 0.967354
vt 0.1326 0.976731
vt 0.144455 0.983072
vt 0.151847 0.972891
vt 0.126057 0.965143
vt 0.0559242 -0.550037
vt 0.0559242 -0.538104
vt 0.0784732 -0.550037
vt 0.0558732 0.405451
vt 0.0785249 0.405451
vt 0.0784732 -0.538104
vt 0.0558732 0.418087
vt 0.0785249 0.418087
vt 0.0558817 0.430423
vt 0.0784625 0.430423
vt 0.531219 0.983258
vt 0.0558817 0.80585
vt 0.0558817 0.818043
vt 0.0784625 0.818043
vt 0.0784625 0.80585
vt 0.0558822 0.83065
vt 0.135722 0.0489361
vt 0.0558822 1.77422
vt 0.0784818 1.77422
vt 0.0784818 0.83065
vt 0.141237 0.0388178
vt 0.132021 0.0293329
vt 0.125739 0.0409634
vt 0.0559242 -0.941713
vt 0.0559242 -0.929449
vt 0.0784732 -0.941713
vt 0.151226 0.0329179
vt 0.143751 0.0226446
vt 0.0559242 -0.9175
vt 0.0784732 -0.9175
vt 0.0784732 -0.929449
vt 0.0559242 -0.561853
vt 0.0784732 -0.561853
vt 0.0903104 0.405451
vt 0.0903104 -0.538121
vt 0.0903104 0.418087
vt 0.13853 0.952935
vt 0.144258 0.962856
vt 0.154181 0.968584
vt 0.13853 0.0550521
vt 0.537219 0.0550552
vt 0.154182 0.0394087
vt 0.0902445 -0.550037
vt 0.537222 0.952931
vt 0.144266 0.0451425
vt 0.0902445 -0.561853
vt 0.0902445 -0.9175
vt 0.0902445 -0.929449
vt 0.53149 0.0451331
vt 0.521569 0.0394049
vt 0.0902445 -0.941713
vt 0.0902162 1.77422
vt 0.0902162 0.83065
vt 0.531501 0.962864
vt 0.521574 0.968586
vt 0.0902162 0.818009
vt 0.0903349 0.818043
vt 0.0903349 0.80585
vt 0.0903349 0.430423
vt 0.855704 0.0514276
vt 0.855704 0.761589
vt 0.912165 0.0514276
vt 0.813192 0.908352
vt 0.867024 0.908258
vt 0.912165 0.761589
vt 0.844116 0.0514276
vt 0.923751 0.761589
vt 0.87769 0.897972
vt 0.981 0.761589
vt 0.981 0.0514276
vt 0.923751 0.0514276
vt 0.878418 0.84373
vt 0.707232 0.0514276
vt 0.707232 0.761589
vt 0.718814 0.761589
vt 0.867979 0.832964
vt 0.77526 0.761589
vt 0.77526 0.0514276
vt 0.718814 0.0514276
vt 0.814148 0.833057
vt 0.803482 0.843343
vt 0.786846 0.761589
vt 0.786846 0.0514276
vt 0.802753 0.897583
vt 0.844116 0.761589
vt 0.694567 0.292825
vt 0.618417 0.292825
vt 0.694567 0.660925
vt 0.560114 0.305166
vt 0.560281 0.676254
vt 0.565913 0.314957
vt 0.618417 0.660925
vt 0.592034 0.648749
vt 0.585977 0.646875
vt 0.591867 0.305166
vt 0.560114 0.332672
vt 0.566171 0.334546
vt 0.592034 0.676254
vt 0.586235 0.666464
vt 0.591847 0.332639
vt 0.694567 0.633317
vt 0.694567 0.320432
vt 0.618417 0.320432
vt 0.560301 0.648781
vt 0.618417 0.633317
vt 0.566126 0.666458
vt 0.585855 0.334519
vt 0.586022 0.314963
vt 0.566293 0.646901
vt 0.108766 0.635125
vt 0.108766 0.0127731
vt 0.00634384 0.635125
vt 0.00634384 0.0127731
vt 0.0697032 0.0127731
vt 0.0454064 0.0127731
vt 0.0697032 0.635125
vt 0.0454064 0.635125
vt 0.591848 0.0226337
vt 0.56013 0.0502056
vt 0.585899 0.0323127
vt 0.616565 0.95839
vt 0.692714 0.95839
vt 0.692714 0.0253378
vt 0.616565 0.0253378
vt 0.56013 0.0226337
vt 0.560299 0.958787
vt 0.566249 0.949108
vt 0.592017 0.958787
vt 0.592017 0.931215
vt 0.692714 0.930783
vt 0.692714 0.0529453
vt 0.616565 0.930783
vt 0.591841 0.0501935
vt 0.585831 0.0519293
vt 0.560306 0.931227
vt 0.566317 0.929491
vt 0.616565 0.0529453
vt 0.586088 0.94911
vt 0.566166 0.051939
vt 0.56606 0.0323104
vt 0.585981 0.929481
vt 0.0447799 0.0127731
vt 0.0447799 0.635125
vt 0.0703298 0.635125
vt 0.0703298 0.0127731
# 264 normals
vn -0.894108 -0.276519 -0.352289
vn -0.928463 -0.011478 0.371247
vn -0.928459 -0.0114773 -0.371258
vn -0.894108 -0.276525 0.352287
vn -0.393989 -0.0115974 0.919042
vn -0.373538 -0.279143 0.884618
vn 0.394002 -0.0115976 0.919036
vn 0.373584 -0.279142 0.884598
vn 0.928471 -0.0114802 0.371227
vn 0.894132 -0.276515 0.352231
vn 0.928464 -0.0114795 -0.371245
vn 0.894127 -0.276519 -0.352242
vn 0.797895 -0.517591 0.308972
vn 0 -1 0
vn 0.797895 -0.517585 -0.30898
vn 0 -1 0
vn 0.373596 -0.279145 -0.884593
vn 0.327056 -0.521469 -0.788102
vn 0 -1 0
vn -0.373541 -0.279136 -0.884619
vn -0.326989 -0.521468 -0.78813
vn 0 -1 0
vn -0.797866 -0.517604 -0.309024
vn 0 -1 0
vn -0.797867 -0.517594 0.309039
vn 0 -1 0
vn -0.327004 -0.521459 0.78813
vn 0 -1 0
vn 0.327048 -0.521474 0.788102
vn 0 -1 0
vn 0.394021 -0.0115955 -0.919028
vn -0.394001 -0.0115951 -0.919037
vn 0.0423071 0.983062 -0.178321
vn -0.0738483 0.948541 -0.307923
vn -0.230132 0.945428 -0.230663
vn 0.2759 0.92152 -0.273275
vn -0.276929 0.920863 0.274449
vn 0.610172 0.518339 -0.599179
vn 0.220614 0.487565 -0.844754
vn -0.220965 0.488199 -0.844296
vn -0.609412 0.518323 -0.599965
vn -0.305247 0.949501 -0.0726147
vn -0.845538 0.488984 -0.214383
vn -0.267503 0.961399 0.064455
vn -0.845239 0.489271 0.214906
vn -0.610514 0.517418 0.599626
vn -0.0363228 0.987523 0.15323
vn -0.220758 0.485881 0.845687
vn 0.064961 0.960356 0.271102
vn 0.221109 0.486522 0.845226
vn 0.231004 0.944968 0.231675
vn 0.355658 0.930766 0.0847474
vn 0.213106 0.975683 -0.0512596
vn 0.609753 0.517397 0.600418
vn 0.845695 0.488648 0.214531
vn 0.845085 0.489604 -0.214755
vn -0.0544738 -0.972101 -0.228148
vn 0.0690785 -0.955667 -0.28623
vn 0.245696 -0.93755 -0.246239
vn 0.324484 -0.942701 -0.0776262
vn 0.295303 -0.909478 0.292654
vn 0.284347 -0.956243 0.0688895
vn -0.223045 -0.47076 -0.853602
vn 0.223426 -0.471426 -0.853135
vn 0.615934 -0.502821 -0.606462
vn 0.854401 -0.472249 -0.216749
vn 0.854093 -0.47255 0.217305
vn 0.617086 -0.501868 0.60608
vn 0.0454309 -0.980651 0.190418
vn 0.223195 -0.469012 0.854524
vn -0.294241 -0.91021 -0.291444
vn -0.246599 -0.937037 0.247287
vn -0.0616382 -0.964817 0.255594
vn -0.223576 -0.469686 0.854054
vn -0.616279 -0.501846 0.606919
vn -0.377913 -0.921402 0.0905514
vn -0.854558 -0.471895 0.216899
vn -0.226443 -0.972483 -0.0547704
vn -0.853938 -0.4729 -0.217152
vn -0.61674 -0.502838 -0.605629
vn -0.894108 -0.276519 -0.352289
vn -0.928463 -0.011478 0.371247
vn -0.928459 -0.0114773 -0.371258
vn -0.894108 -0.276525 0.352287
vn -0.393989 -0.0115974 0.919042
vn -0.373538 -0.279143 0.884618
vn 0.394002 -0.0115976 0.919036
vn 0.373584 -0.279142 0.884598
vn 0.928471 -0.0114802 0.371227
vn 0.894132 -0.276515 0.352231
vn 0.928464 -0.0114795 -0.371245
vn 0.894127 -0.276519 -0.352242
vn 0.797895 -0.517591 0.308972
vn 0 -1 0
vn 0.797895 -0.517585 -0.30898
vn 0 -1 0
vn 0.373596 -0.279145 -0.884593
vn 0.327056 -0.521469 -0.788102
vn 0 -1 0
vn -0.373541 -0.279136 -0.884619
vn -0.326989 -0.521468 -0.78813
vn 0 -1 0
vn -0.797866 -0.517604 -0.309024
vn 0 -1 0
vn -0.797867 -0.517594 0.309039
vn 0 -1 0
vn -0.327004 -0.521459 0.78813
vn 0 -1 0
vn 0.327048 -0.521474 0.788102
vn 0 -1 0
vn 0.394021 -0.0115955 -0.919028
vn -0.394001 -0.0115951 -0.919037
vn -8.22927e-017 -0.352818 0.935692
vn 0.531065 -0.660257 -0.531065
vn -0.531065 -0.660257 0.531065
vn 0.935692 -0.352818 0
vn -8.60129e-017 0 1
vn 1 0 0
vn 8.60129e-017 0 -1
vn 1 0 0
vn 0.531065 -0.660257 0.531065
vn 7.37824e-017 -0.352818 -0.935692
vn -0.531065 -0.660257 -0.531065
vn 0.935692 -0.352818 0
vn -0.531065 -0.660257 -0.531065
vn -9.19476e-017 -0.352818 0.935692
vn 0.531065 -0.660257 0.531065
vn -0.935692 -0.352818 0
vn -8.60129e-017 0 1
vn -1 0 0
vn 8.60129e-017 0 -1
vn -1 0 0
vn -0.531065 -0.660257 0.531065
vn 4.59622e-017 -0.352818 -0.935692
vn 0.531065 -0.660257 -0.531065
vn -0.935692 -0.352818 0
vn 0.197453 -0.490976 0.848501
vn -0.848501 -0.490976 -0.197453
vn 0.197453 -0.490976 -0.848501
vn -0.848501 -0.490976 0.197453
vn -0.197453 -0.490976 -0.848501
vn 0.848501 -0.490976 0.197453
vn -0.197453 -0.490976 0.848501
vn 0.848501 -0.490976 -0.197453
vn 4.57115e-017 0 -1
vn -1 0 0
vn -6.85673e-017 0 1
vn -1 0 0
vn -9.1423e-017 0 1
vn 1 0 0
vn 6.85673e-017 0 -1
vn 1 0 0
vn 0.0920145 -0.970663 -0.222143
vn 0.0920145 -0.970663 0.222143
vn -0.474184 -0.858238 0.196413
vn -0.474184 -0.858238 -0.196413
vn 0.222143 -0.970663 0.0920145
vn -0.222143 -0.970663 0.0920145
vn -0.196413 -0.858238 -0.474184
vn 0.196413 -0.858238 -0.474184
vn -0.0920145 -0.970663 0.222143
vn -0.0920145 -0.970663 -0.222143
vn 0.474184 -0.858238 -0.196413
vn 0.474184 -0.858238 0.196413
vn -0.222143 -0.970663 -0.0920145
vn 0.222143 -0.970663 -0.0920145
vn 0.196413 -0.858238 0.474184
vn -0.196413 -0.858238 0.474184
vn -0.894108 -0.276519 -0.352289
vn -0.928463 -0.011478 0.371247
vn -0.928459 -0.0114773 -0.371258
vn -0.894108 -0.276525 0.352287
vn -0.393989 -0.0115974 0.919042
vn -0.373538 -0.279143 0.884618
vn 0.394002 -0.0115976 0.919036
vn 0.373584 -0.279142 0.884598
vn 0.928471 -0.0114802 0.371227
vn 0.894132 -0.276515 0.352231
vn 0.928464 -0.0114795 -0.371245
vn 0.894127 -0.276519 -0.352242
vn 0.797895 -0.517591 0.308972
vn 0 -1 0
vn 0.797895 -0.517585 -0.30898
vn 0 -1 0
vn 0.373596 -0.279145 -0.884593
vn 0.327056 -0.521469 -0.788102
vn 0 -1 0
vn -0.373541 -0.279136 -0.884619
vn -0.326989 -0.521468 -0.78813
vn 0 -1 0
vn -0.797866 -0.517604 -0.309024
vn 0 -1 0
vn -0.797867 -0.517594 0.309039
vn 0 -1 0
vn -0.327004 -0.521459 0.78813
vn 0 -1 0
vn 0.327048 -0.521474 0.788102
vn 0 -1 0
vn 0.394021 -0.0115955 -0.919028
vn -0.394001 -0.0115951 -0.919037
vn 0 -1 0
vn -1 0 0
vn 0 1 0
vn -1 0 0
vn 0 -1 0
vn -1 0 0
vn 0 1 0
vn -1 0 0
vn 0 1 0
vn 1 0 0
vn 0 1 0
vn 1 0 0
vn 0 -1 0
vn 1 0 0
vn 0 -1 0
vn 1 0 0
vn 1 0 0
vn 0 1 0
vn -1 0 0
vn 0 1 0
vn -1 0 0
vn 0 1 0
vn 1 0 0
vn 0 1 0
vn -1 0 0
vn 0 -1 0
vn -1 0 0
vn 0 -1 0
vn 1 0 0
vn 0 -1 0
vn 1 0 0
vn 0 -1 0
vn -0.894108 -0.276519 -0.352289
vn -0.928463 -0.011478 0.371247
vn -0.928459 -0.0114773 -0.371258
vn -0.894108 -0.276525 0.352287
vn -0.393989 -0.0115974 0.919042
vn -0.373538 -0.279143 0.884618
vn 0.394002 -0.0115976 0.919036
vn 0.373584 -0.279142 0.884598
vn 0.928471 -0.0114802 0.371227
vn 0.894132 -0.276515 0.352231
vn 0.928464 -0.0114795 -0.371245
vn 0.894127 -0.276519 -0.352242
vn 0.797895 -0.517591 0.308972
vn 0 -1 0
vn 0.797895 -0.517585 -0.30898
vn 0 -1 0
vn 0.373596 -0.279145 -0.884593
vn 0.327056 -0.521469 -0.788102
vn 0 -1 0
vn -0.373541 -0.279136 -0.884619
vn -0.326989 -0.521468 -0.78813
vn 0 -1 0
vn -0.797866 -0.517604 -0.309024
vn 0 -1 0
vn -0.797867 -0.517594 0.309039
vn 0 -1 0
vn -0.327004 -0.521459 0.78813
vn 0 -1 0
vn 0.327048 -0.521474 0.788102
vn 0 -1 0
vn 0.394021 -0.0115955 -0.919028
vn -0.394001 -0.0115951 -0.919037
usemtl table05_D
g mesh
s 1
f 13/1/14 19/3/24 14/2/16
f 14/2/16 18/5/22 16/4/19
f 18/5/22 14/2/16 19/3/24
f 19/3/24 13/1/14 20/6/26
f 20/6/26 22/8/30 21/7/28
f 22/8/30 20/6/26 13/1/14
f 25/9/33 31/11/39 26/10/34
f 25/9/33 45/13/53 28/12/36
f 26/10/34 31/11/39 32/14/40
f 26/10/34 33/16/41 27/15/35
f 26/10/34 39/17/47 25/9/33
f 27/15/35 34/18/42 26/10/34
f 28/12/36 31/11/39 25/9/33
f 28/12/36 48/20/56 30/19/38
f 29/21/37 37/23/45 38/22/46
f 29/21/37 39/17/47 36/24/44
f 29/21/37 40/25/48 39/17/47
f 30/19/38 31/11/39 28/12/36
f 30/26/38 57/28/65 31/27/39
f 31/27/39 55/30/63 32/29/40
f 31/27/39 57/28/65 56/31/64
f 32/14/40 33/16/41 26/10/34
f 32/29/40 55/30/63 33/32/41
f 33/16/41 34/18/42 27/15/35
f 33/32/41 55/30/63 72/33/80
f 33/32/41 71/35/79 35/34/43
f 34/18/42 37/23/45 36/24/44
f 34/18/42 39/17/47 26/10/34
f 35/36/43 34/18/42 33/16/41
f 35/36/43 37/23/45 34/18/42
f 35/34/43 71/35/79 37/37/45
f 36/24/44 37/23/45 29/21/37
f 36/24/44 39/17/47 34/18/42
f 37/37/45 67/39/75 38/38/46
f 37/37/45 71/35/79 69/40/77
f 38/22/46 40/25/48 29/21/37
f 38/38/46 67/39/75 40/41/48
f 40/25/48 41/42/49 39/17/47
f 40/41/48 62/44/70 42/43/50
f 40/41/48 67/39/75 66/45/74
f 41/42/49 25/9/33 39/17/47
f 41/42/49 46/47/54 43/46/51
f 42/48/50 41/42/49 40/25/48
f 42/48/50 46/47/54 41/42/49
f 42/49/50 62/51/70 46/50/54
f 43/46/51 44/52/52 41/42/49
f 43/46/51 46/47/54 44/52/52
f 44/52/52 46/47/54 47/53/55
f 44/52/52 48/20/56 45/13/53
f 45/13/53 25/9/33 41/42/49
f 45/13/53 41/42/49 44/52/52
f 45/13/53 48/20/56 28/12/36
f 46/50/54 59/55/67 47/54/55
f 46/50/54 62/51/70 60/56/68
f 47/53/55 48/20/56 44/52/52
f 47/54/55 59/55/67 48/57/56
f 48/57/56 57/28/65 30/26/38
f 48/57/56 59/55/67 58/58/66
f 49/59/57 55/30/63 50/60/58
f 49/59/57 63/61/71 55/30/63
f 49/62/57 70/64/78 63/63/71
f 50/65/58 52/67/60 61/66/69
f 50/60/58 55/30/63 56/31/64
f 50/60/58 57/28/65 51/68/59
f 50/65/58 65/69/73 49/62/57
f 51/70/59 52/67/60 50/65/58
f 51/68/59 57/28/65 52/71/60
f 52/71/60 57/28/65 58/58/66
f 52/71/60 59/55/67 54/72/62
f 53/73/61 59/55/67 60/56/68
f 53/74/61 61/66/69 54/75/62
f 53/73/61 62/51/70 61/76/69
f 54/72/62 59/55/67 53/73/61
f 54/75/62 61/66/69 52/67/60
f 55/30/63 63/61/71 72/33/80
f 56/31/64 55/30/63 31/27/39
f 56/31/64 57/28/65 50/60/58
f 58/58/66 57/28/65 48/57/56
f 58/58/66 59/55/67 52/71/60
f 60/56/68 59/55/67 46/50/54
f 60/56/68 62/51/70 53/73/61
f 62/44/70 65/78/73 61/77/69
f 63/61/71 71/35/79 72/33/80
f 64/79/72 68/80/76 65/69/73
f 65/69/73 50/65/58 61/66/69
f 65/78/73 67/39/75 64/81/72
f 66/45/74 62/44/70 40/41/48
f 66/45/74 65/78/73 62/44/70
f 66/45/74 67/39/75 65/78/73
f 67/39/75 68/83/76 64/82/72
f 68/83/76 71/35/79 70/84/78
f 69/40/77 67/39/75 37/37/45
f 69/40/77 68/83/76 67/39/75
f 69/40/77 71/35/79 68/83/76
f 70/64/78 49/62/57 65/69/73
f 70/64/78 65/69/73 68/80/76
f 70/84/78 71/35/79 63/61/71
f 72/33/80 71/35/79 33/32/41
f 85/1/94 91/3/104 86/2/96
f 86/2/96 90/5/102 88/4/99
f 90/5/102 86/2/96 91/3/104
f 91/3/104 85/1/94 92/6/106
f 92/6/106 94/8/110 93/7/108
f 94/8/110 92/6/106 85/1/94
f 141/1/182 147/3/192 142/2/184
f 142/2/184 146/5/190 144/4/187
f 146/5/190 142/2/184 147/3/192
f 147/3/192 141/1/182 148/6/194
f 148/6/194 150/8/198 149/7/196
f 150/8/198 148/6/194 141/1/182
f 181/1/246 187/3/256 182/2/248
f 182/2/248 186/5/254 184/4/251
f 186/5/254 182/2/248 187/3/256
f 187/3/256 181/1/246 188/6/258
f 188/6/258 190/8/262 189/7/260
f 190/8/262 188/6/258 181/1/246
s 2
f 1/85/1 4/87/4 3/86/3
f 1/88/1 19/3/23 4/89/4
f 3/86/3 4/87/4 2/90/2
f 3/86/3 17/91/20 1/85/1
f 4/87/4 5/92/5 2/90/2
f 4/89/4 19/3/23 20/6/25
f 4/89/4 21/7/27 6/93/6
f 5/92/5 8/95/8 7/94/7
f 6/96/6 5/92/5 4/87/4
f 6/96/6 8/95/8 5/92/5
f 6/93/6 21/7/27 8/97/8
f 8/98/8 9/100/9 7/99/7
f 8/97/8 13/1/13 10/101/10
f 8/97/8 21/7/27 22/8/29
f 9/100/9 12/103/12 11/102/11
f 10/104/10 9/100/9 8/98/8
f 10/104/10 12/103/12 9/100/9
f 10/101/10 13/1/13 12/105/12
f 12/105/12 13/1/13 14/2/15
f 12/105/12 16/4/18 15/106/17
f 12/103/12 23/107/31 11/102/11
f 14/2/15 16/4/18 12/105/12
f 15/108/17 23/107/31 12/103/12
f 16/4/18 17/109/20 15/106/17
f 17/109/20 19/3/23 1/88/1
f 17/91/20 23/107/31 15/108/17
f 18/5/21 17/109/20 16/4/18
f 18/5/21 19/3/23 17/109/20
f 20/6/25 21/7/27 4/89/4
f 22/8/29 13/1/13 8/97/8
f 24/110/32 17/91/20 3/86/3
f 24/110/32 23/107/31 17/91/20
f 73/85/81 76/87/84 75/86/83
f 73/88/81 91/3/103 76/89/84
f 75/86/83 76/87/84 74/90/82
f 75/86/83 89/91/100 73/85/81
f 76/87/84 77/92/85 74/90/82
f 76/89/84 91/3/103 92/6/105
f 76/89/84 93/7/107 78/93/86
f 77/92/85 80/95/88 79/94/87
f 78/96/86 77/92/85 76/87/84
f 78/96/86 80/95/88 77/92/85
f 78/93/86 93/7/107 80/97/88
f 80/98/88 81/100/89 79/99/87
f 80/97/88 85/1/93 82/101/90
f 80/97/88 93/7/107 94/8/109
f 81/100/89 84/103/92 83/102/91
f 82/104/90 81/100/89 80/98/88
f 82/104/90 84/103/92 81/100/89
f 82/101/90 85/1/93 84/105/92
f 84/105/92 85/1/93 86/2/95
f 84/105/92 88/4/98 87/106/97
f 84/103/92 95/107/111 83/102/91
f 86/2/95 88/4/98 84/105/92
f 87/108/97 95/107/111 84/103/92
f 88/4/98 89/109/100 87/106/97
f 89/109/100 91/3/103 73/88/81
f 89/91/100 95/107/111 87/108/97
f 90/5/101 89/109/100 88/4/98
f 90/5/101 91/3/103 89/109/100
f 92/6/105 93/7/107 76/89/84
f 94/8/109 85/1/93 80/97/88
f 96/110/112 89/91/100 75/86/83
f 96/110/112 95/107/111 89/91/100
f 97/111/116 100/113/124 98/112/118
f 97/114/116 114/116/154 100/115/124
f 98/112/118 100/113/124 99/117/120
f 100/115/123 116/119/156 105/118/138
f 101/113/128 103/112/132 104/111/136
f 101/120/127 124/122/164 107/121/142
f 102/117/130 103/112/132 101/113/128
f 104/123/136 122/124/162 101/120/128
f 105/118/138 116/119/156 106/125/140
f 106/126/140 110/128/148 105/127/138
f 106/125/140 114/116/154 97/114/115
f 107/121/142 124/122/164 108/129/144
f 108/126/144 112/128/152 107/127/142
f 108/129/144 122/124/162 104/123/135
f 110/128/148 106/126/140 109/130/146
f 112/128/152 108/126/144 111/130/150
f 113/131/153 100/115/124 114/116/154
f 113/131/153 116/119/156 100/115/123
f 114/116/154 106/125/140 115/132/155
f 114/116/154 116/119/156 113/131/153
f 115/132/155 106/125/140 116/119/156
f 115/132/155 116/119/156 114/116/154
f 121/133/161 101/120/128 122/124/162
f 121/133/161 124/122/164 101/120/127
f 122/124/162 108/129/144 123/134/163
f 122/124/162 124/122/164 121/133/161
f 123/134/163 108/129/144 124/122/164
f 123/134/163 124/122/164 122/124/162
f 129/85/169 132/87/172 131/86/171
f 129/88/169 147/3/191 132/89/172
f 131/86/171 132/87/172 130/90/170
f 131/86/171 145/91/188 129/85/169
f 132/87/172 133/92/173 130/90/170
f 132/89/172 147/3/191 148/6/193
f 132/89/172 149/7/195 134/93/174
f 133/92/173 136/95/176 135/94/175
f 134/96/174 133/92/173 132/87/172
f 134/96/174 136/95/176 133/92/173
f 134/93/174 149/7/195 136/97/176
f 136/98/176 137/100/177 135/99/175
f 136/97/176 141/1/181 138/101/178
f 136/97/176 149/7/195 150/8/197
f 137/100/177 140/103/180 139/102/179
f 138/104/178 137/100/177 136/98/176
f 138/104/178 140/103/180 137/100/177
f 138/101/178 141/1/181 140/105/180
f 140/105/180 141/1/181 142/2/183
f 140/105/180 144/4/186 143/106/185
f 140/103/180 151/107/199 139/102/179
f 142/2/183 144/4/186 140/105/180
f 143/108/185 151/107/199 140/103/180
f 144/4/186 145/109/188 143/106/185
f 145/109/188 147/3/191 129/88/169
f 145/91/188 151/107/199 143/108/185
f 146/5/189 145/109/188 144/4/186
f 146/5/189 147/3/191 145/109/188
f 148/6/193 149/7/195 132/89/172
f 150/8/197 141/1/181 136/97/176
f 152/110/200 145/91/188 131/86/171
f 152/110/200 151/107/199 145/91/188
f 153/135/202 156/137/208 155/136/206
f 155/136/206 156/137/208 154/138/204
f 157/138/210 159/136/214 158/137/212
f 158/137/212 159/136/214 160/135/216
f 161/139/218 164/141/224 163/140/222
f 163/140/222 164/141/224 162/142/220
f 165/140/226 168/141/232 166/142/228
f 167/139/230 168/141/232 165/140/226
f 169/85/233 172/87/236 171/86/235
f 169/88/233 187/3/255 172/89/236
f 171/86/235 172/87/236 170/90/234
f 171/86/235 185/91/252 169/85/233
f 172/87/236 173/92/237 170/90/234
f 172/89/236 187/3/255 188/6/257
f 172/89/236 189/7/259 174/93/238
f 173/92/237 176/95/240 175/94/239
f 174/96/238 173/92/237 172/87/236
f 174/96/238 176/95/240 173/92/237
f 174/93/238 189/7/259 176/97/240
f 176/98/240 177/100/241 175/99/239
f 176/97/240 181/1/245 178/101/242
f 176/97/240 189/7/259 190/8/261
f 177/100/241 180/103/244 179/102/243
f 178/104/242 177/100/241 176/98/240
f 178/104/242 180/103/244 177/100/241
f 178/101/242 181/1/245 180/105/244
f 180/105/244 181/1/245 182/2/247
f 180/105/244 184/4/250 183/106/249
f 180/103/244 191/107/263 179/102/243
f 182/2/247 184/4/250 180/105/244
f 183/108/249 191/107/263 180/103/244
f 184/4/250 185/109/252 183/106/249
f 185/109/252 187/3/255 169/88/233
f 185/91/252 191/107/263 183/108/249
f 186/5/253 185/109/252 184/4/250
f 186/5/253 187/3/255 185/109/252
f 188/6/257 189/7/259 172/89/236
f 190/8/261 181/1/245 176/97/240
f 192/110/264 185/91/252 171/86/235
f 192/110/264 191/107/263 185/91/252
s 3
f 97/143/114 117/145/157 106/144/139
f 98/146/117 101/148/126 97/147/113
f 100/148/122 103/146/131 99/149/119
f 100/150/122 125/152/165 104/151/134
f 101/153/126 117/145/157 97/143/113
f 102/149/129 101/148/126 98/146/117
f 104/147/134 103/146/131 100/148/122
f 104/151/133 125/152/165 108/154/143
f 105/155/137 110/157/147 108/156/143
f 105/158/137 127/159/167 100/150/121
f 106/144/139 119/161/159 107/160/141
f 107/155/141 112/157/151 106/156/139
f 107/160/141 119/161/159 101/153/125
f 108/154/143 127/159/167 105/158/137
f 109/162/145 106/156/139 112/157/151
f 111/162/149 108/156/143 110/157/147
f 117/145/157 101/153/126 118/163/158
f 118/163/158 101/153/125 119/161/159
f 118/163/158 119/161/159 117/145/157
f 119/161/159 106/144/139 120/164/160
f 120/164/160 106/144/139 117/145/157
f 120/164/160 117/145/157 119/161/159
f 125/152/165 100/150/122 126/165/166
f 126/165/166 100/150/121 127/159/167
f 126/165/166 127/159/167 125/152/165
f 127/159/167 108/154/143 128/166/168
f 128/166/168 108/154/143 125/152/165
f 128/166/168 125/152/165 127/159/167
f 155/167/205 159/169/213 153/168/201
f 156/167/207 158/169/211 154/168/203
f 157/170/209 158/169/211 156/167/207
f 160/170/215 159/169/213 155/167/205
f 161/138/217 168/136/231 164/137/223
f 162/138/219 165/136/225 163/137/221
f 163/137/221 165/136/225 166/135/227
f 164/137/223 168/136/231 167/135/229
