# Wavefront OBJ
# Created by fragMOTION
# http://www.fragmosoft.com

mtllib book12.mtl
# 24 vertices
v -7.90586 0.000425907 -12.0254
v 7.07179 0 12.0254
v -7.89013 0 12.0254
v 7.07179 6.93889e-016 -12.0254
v -7.89013 2.07975 -12.0254
v 7.07179 2.07975 12.0254
v 7.07179 2.07975 -12.0254
v -7.89013 2.07968 12.0254
v 7.90586 1.39768 12.0254
v 7.90586 0.634595 12.0254
v 7.90586 0.637362 -12.0254
v 7.90586 1.38839 -12.0254
v 6.94166 0.185549 -11.962
v 7.62268 0.705967 -11.962
v 7.62268 1.32396 -11.962
v 6.93474 1.8942 -11.962
v 6.94202 0.185546 11.962
v 6.93589 1.8942 11.962
v 7.62268 1.33257 11.962
v 7.62268 0.703427 11.962
v -7.78581 0.184618 11.92
v -7.78581 1.89321 11.92
v -7.78702 1.90975 -11.92
v -7.7999 0.206941 -11.92
# 56 texture vertices
vt 0.471622 0.556322
vt 0.471622 0.340204
vt 0.3284 0.340204
vt 0.3284 0.556322
vt 0.647832 0.33983
vt 0.505364 0.33983
vt 0.647832 0.556412
vt 0.505364 0.556412
vt 0.71092 0.0861307
vt 0.394069 0.0856851
vt 0.394069 0.0396418
vt 0.71092 0.0402427
vt 0.327575 0.557113
vt 0.329225 0.557113
vt 0.329225 0.339416
vt 0.504355 0.555331
vt 0.494223 0.555331
vt 0.494223 0.34146
vt 0.327575 0.339416
vt 0.504355 0.34146
vt 0.505854 0.341206
vt 0.505697 0.556762
vt 0.507275 0.341206
vt 0.473994 0.555331
vt 0.473994 0.34146
vt 0.484616 0.555331
vt 0.484616 0.34146
vt 0.647116 0.0397271
vt 0.656284 0.0537543
vt 0.656269 0.0704112
vt 0.646994 0.0857663
vt 0.448862 0.0860453
vt 0.457968 0.0398802
vt 0.656193 0.0398551
vt 0.458061 0.0859173
vt 0.448806 0.0707889
vt 0.448796 0.0538302
vt 0.507267 0.556762
vt 0.656188 0.0859073
vt 0.448705 0.0401515
vt 0.3284 0.557904
vt 0.504355 0.558082
vt 0.494223 0.558082
vt 0.473272 0.338629
vt 0.504355 0.338684
vt 0.473994 0.558082
vt 0.649331 0.338326
vt 0.505364 0.557989
vt 0.484616 0.338684
vt 0.494223 0.338684
vt 0.473994 0.338684
vt 0.649323 0.557989
vt 0.484616 0.558082
vt 0.3284 0.338629
vt 0.505364 0.338326
vt 0.473272 0.557904
# 64 normals
vn -0.000936089 0.390318 -0.920679
vn -0.880375 0.474277 0.000765596
vn -1.42181e-005 -1 -8.85432e-006
vn -0.0832491 0.315065 0.945412
vn 0.606345 -0.795202 -4.57768e-005
vn -1.42181e-005 -1 -8.85432e-006
vn 0 0.495794 0.86844
vn -0.870462 0.492235 0.000577757
vn 0 -1 -1.77086e-005
vn -0.0822311 0.270047 -0.959329
vn 0.607179 -0.794565 -1.58312e-016
vn -2.84362e-005 -1 -2.88459e-017
vn 0 -0.52695 -0.849896
vn -0.855003 -0.518623 -1.51935e-006
vn 0 1 2.92958e-006
vn -0.0846585 -0.26603 0.96024
vn 0.63304 0.774119 -8.42122e-017
vn -4.7092e-006 1 8.13448e-017
vn -0.0865915 -0.318474 -0.943968
vn 0.635608 0.772012 -0.000148778
vn -2.3546e-006 1 1.46479e-006
vn -0.0012294 -0.40998 0.912094
vn -0.864013 -0.50347 -0.000147856
vn -2.3546e-006 1 1.46479e-006
vn -0.194526 -0.103561 0.975415
vn 0.904326 0.426843 -8.22588e-005
vn -0.192084 0.108019 0.975416
vn 0.895966 -0.444122 -5.10921e-005
vn -0.192235 0.107752 -0.975415
vn 0.896199 -0.443652 -2.55394e-005
vn -0.19497 -0.102716 -0.975416
vn 0.905033 0.425342 -0.000164389
vn -0.0830248 0.3044 -0.948919
vn -0.00142591 2.49836e-006 -0.999999
vn -0.192235 0.107752 -0.975415
vn -4.22067e-015 0 -1
vn -0.19497 -0.102716 -0.975416
vn -2.86848e-015 0 -1
vn -0.0866417 -0.264155 -0.960581
vn -0.00142688 -5.77779e-006 -0.999999
vn -0.0834301 0.269402 0.959407
vn -0.000950856 -3.41137e-006 1
vn -0.0857841 -0.310562 0.946674
vn -0.00190211 -3.41137e-006 0.999998
vn -0.194526 -0.103561 0.975415
vn 6.22214e-015 0 1
vn -0.192084 0.108019 0.975416
vn 1.24443e-014 0 1
vn -0.00136691 0.41056 0.911832
vn -0.00285316 -5.11705e-006 0.999996
vn -0.880375 0.474277 0.000765596
vn -0.999993 0.00378061 0.000324574
vn -0.00244965 -0.49312 0.869958
vn -0.00285376 0 0.999996
vn -0.872755 -0.488159 -0.000294146
vn -1 0 5.09978e-005
vn -0.00153086 -0.426876 -0.904309
vn -0.00285181 4.99672e-006 -0.999996
vn -0.864013 -0.50347 -0.000147856
vn -0.999993 0.00378061 0.000324574
vn -0.00187655 0.455348 -0.890311
vn -0.00284987 2.1549e-005 -0.999996
vn -0.889918 0.456119 0.000953113
vn -0.999971 0.00756117 0.000598145
usemtl books_D
g mesh
s 1
f 1/1/3 2/3/6 3/2/9
f 4/4/12 2/3/6 1/1/3
f 5/5/15 8/7/24 7/6/21
f 7/6/21 8/7/24 6/8/18
f 23/9/60 21/11/52 22/10/56
f 24/12/64 21/11/52 23/9/60
s 2
f 1/13/2 21/15/51 24/14/63
f 2/16/5 11/18/30 10/17/28
f 3/19/8 21/15/51 1/13/2
f 4/20/11 11/18/30 2/16/5
f 5/21/14 23/23/59 8/22/23
f 6/24/17 9/26/26 7/25/20
f 7/25/20 9/26/26 12/27/32
f 9/26/26 11/18/30 12/27/32
f 10/17/28 11/18/30 9/26/26
f 13/28/34 15/30/38 14/29/36
f 15/30/38 13/28/34 16/31/40
f 16/31/40 13/28/34 23/32/58
f 17/33/42 18/35/44 21/34/50
f 18/35/44 17/33/42 19/36/46
f 19/36/46 17/33/42 20/37/48
f 22/38/55 8/22/23 23/23/59
f 22/39/54 21/34/50 18/35/44
f 24/40/62 23/32/58 13/28/34
s 3
f 1/1/1 13/41/33 4/4/10
f 2/16/4 20/43/47 17/42/41
f 2/3/4 21/44/49 3/2/7
f 4/20/10 13/45/33 11/18/29
f 6/24/16 18/46/43 9/26/25
f 7/6/19 23/47/57 5/5/13
f 8/7/22 18/48/43 6/8/16
f 9/26/25 20/43/47 10/17/27
f 10/17/27 20/43/47 2/16/4
f 11/18/29 15/49/37 12/27/31
f 12/27/31 15/49/37 7/25/19
f 14/50/35 11/18/29 13/45/33
f 15/49/37 11/18/29 14/50/35
f 16/51/39 7/25/19 15/49/37
f 18/48/43 8/7/22 22/52/53
f 19/53/45 9/26/25 18/46/43
f 20/43/47 9/26/25 19/53/45
f 21/44/49 2/3/4 17/54/41
f 23/47/57 7/6/19 16/55/39
f 24/56/61 13/41/33 1/1/1
