# Wavefront MTL
# Created by fragMOTION
# http://www.fragmosoft.com

newmtl Material
illum 2
d 1
ka 0.752941 0.752941 0.752941
kd 0.752941 0.752941 0.752941
ks 0 0 0
ke 0 0 0
ns 40
map_kd sofa_D.tga
